date,09,15,14,25,08,26,30,03,02,19,27,11,16,29,31,21,23,22,18,13,28,01,12,17,06,05,10,07,20,04,32,24
2020-01-01,0,0,0,0,0,0,0,0,0,0,0,0,0,0,0,0,0,0,0,0,0,0,0,0,0,0,0,0,0,0,0,0
2020-01-02,0,0,0,0,0,0,0,0,0,0,0,0,0,0,0,0,0,0,0,0,0,0,0,0,0,0,0,0,0,0,0,0
2020-01-03,0,0,0,0,0,0,0,0,0,0,0,0,0,0,0,0,0,0,0,0,0,0,0,0,0,0,0,0,0,0,0,0
2020-01-04,0,0,0,0,0,0,0,0,0,0,0,0,0,0,0,0,0,0,0,0,0,0,0,0,0,0,0,0,0,0,0,0
2020-01-05,0,0,0,0,0,0,0,0,0,0,0,0,0,0,0,0,0,0,0,0,0,0,0,0,0,0,0,0,0,0,0,0
2020-01-06,0,0,0,0,0,0,0,0,0,0,0,0,0,0,0,0,0,0,0,0,0,0,0,0,0,0,0,0,0,0,0,0
2020-01-07,0,0,0,0,0,0,0,0,0,0,0,0,0,0,0,0,0,0,0,0,0,0,0,0,0,0,0,0,0,0,0,0
2020-01-08,0,0,0,0,0,0,0,0,0,0,1,0,0,0,0,0,0,0,0,0,0,0,0,0,0,0,0,0,0,0,0,0
2020-01-09,0,0,0,0,0,0,0,0,0,0,0,0,0,0,0,0,0,0,0,0,0,0,0,0,0,0,0,0,0,0,0,0
2020-01-10,0,0,0,0,0,0,0,0,0,0,0,0,0,0,0,0,0,0,0,0,0,0,0,0,0,0,0,0,0,0,0,0
2020-01-11,0,0,0,0,0,0,0,0,0,0,0,0,0,0,0,0,0,0,0,0,0,0,0,0,0,0,0,0,0,0,0,0
2020-01-12,0,0,0,0,0,0,0,0,0,0,0,0,0,0,0,0,0,0,0,0,0,0,0,0,0,0,0,0,0,0,0,0
2020-01-13,0,0,0,0,0,0,0,0,0,0,0,0,0,0,0,0,0,0,0,0,0,0,0,0,0,0,0,0,0,0,0,0
2020-01-14,0,0,0,0,0,0,0,0,0,0,0,0,0,0,0,0,0,0,0,0,0,1,0,0,0,0,0,0,0,0,0,0
2020-01-15,0,0,0,0,0,0,0,0,0,0,0,0,0,0,0,0,0,0,0,0,0,0,0,0,0,0,0,0,0,0,0,0
2020-01-16,0,0,0,0,0,0,0,0,0,0,0,0,0,0,0,0,0,0,0,0,0,0,0,0,0,0,0,0,0,0,0,0
2020-01-17,0,0,0,0,0,0,0,0,0,0,0,0,0,0,0,0,0,0,0,0,0,0,0,0,0,0,0,0,0,0,0,0
2020-01-18,0,0,0,0,0,0,0,0,0,0,0,0,0,0,0,0,0,0,0,0,0,0,0,0,0,0,0,0,0,0,0,0
2020-01-19,0,0,0,0,0,0,0,0,0,0,0,0,0,0,0,0,0,0,0,0,0,0,0,0,0,0,0,0,0,0,0,0
2020-01-20,0,0,0,0,0,0,0,0,0,0,0,0,0,0,0,0,0,0,0,0,0,0,0,0,0,0,0,0,0,0,0,0
2020-01-21,0,0,0,0,0,0,0,0,0,0,0,0,0,0,0,0,0,0,0,0,0,0,0,0,0,0,0,0,0,0,0,0
2020-01-22,0,0,0,0,0,0,0,0,0,0,0,0,0,0,0,0,0,0,0,0,0,0,0,0,0,0,0,0,0,0,0,0
2020-01-23,0,0,0,0,0,0,0,0,0,0,0,0,0,0,0,0,0,0,0,0,0,0,0,0,0,0,0,0,0,0,0,0
2020-01-24,0,0,0,0,0,0,0,0,0,0,0,0,0,0,0,0,0,0,0,0,0,0,0,0,0,0,0,0,0,0,0,0
2020-01-25,0,0,0,0,0,0,0,0,0,0,0,0,0,0,0,0,0,0,0,0,0,0,0,0,0,0,0,0,0,0,0,0
2020-01-26,0,0,0,0,0,0,0,0,0,0,0,0,0,0,0,0,0,0,0,0,0,0,0,0,0,0,0,0,0,0,0,0
2020-01-27,0,0,0,0,0,0,0,0,0,0,0,0,0,0,0,0,0,0,0,0,0,0,0,0,0,0,0,0,0,0,0,0
2020-01-28,0,0,0,0,0,0,0,0,0,0,0,0,0,0,0,0,0,0,0,0,0,0,0,0,0,1,0,0,0,0,0,0
2020-01-29,0,0,0,0,0,0,0,0,0,0,0,0,0,0,0,0,0,0,0,0,0,0,0,0,0,0,0,0,0,0,0,0
2020-01-30,0,0,0,0,0,0,0,0,0,0,0,0,0,0,0,0,0,0,0,0,0,0,0,0,0,0,0,0,0,0,0,0
2020-01-31,0,0,0,0,0,0,0,0,0,0,0,0,0,0,0,0,0,0,0,0,0,0,0,0,0,0,0,0,0,0,0,0
2020-02-01,0,0,0,0,0,0,0,0,0,0,0,0,0,0,0,0,0,0,0,0,0,0,0,0,0,0,0,0,0,0,0,0
2020-02-02,0,0,0,0,0,0,0,0,0,0,0,0,0,0,0,0,0,0,0,0,0,0,0,0,0,0,0,0,0,0,0,0
2020-02-03,0,0,0,0,0,0,0,0,0,0,0,0,0,0,0,0,0,0,0,0,0,0,0,0,0,0,0,0,0,0,0,0
2020-02-04,0,0,0,0,0,0,0,0,0,0,0,0,0,0,0,0,0,0,0,0,0,0,0,0,0,0,0,0,0,0,0,0
2020-02-05,0,0,0,0,0,0,0,0,0,0,0,0,0,0,0,0,0,0,0,0,0,0,0,0,0,0,0,0,0,0,0,0
2020-02-06,0,0,0,0,0,0,0,0,0,0,0,0,0,0,0,0,0,0,0,0,0,0,0,0,0,0,0,0,0,0,0,0
2020-02-07,0,0,0,0,0,0,0,0,0,0,0,0,0,0,0,0,0,0,0,0,0,0,0,0,0,0,0,0,0,0,0,0
2020-02-08,0,0,0,0,0,0,0,0,0,0,0,0,0,0,0,0,0,0,0,0,0,0,0,0,0,0,0,0,0,0,0,0
2020-02-09,0,0,0,0,0,0,0,0,0,0,0,0,0,0,0,0,0,0,0,0,0,0,0,0,0,0,0,0,0,0,0,0
2020-02-10,0,0,0,0,0,0,0,0,0,0,0,0,0,0,0,0,0,0,0,0,0,0,0,0,0,0,0,0,0,0,0,0
2020-02-11,0,0,0,0,0,0,0,0,0,0,0,0,0,0,0,0,0,0,0,0,0,0,0,0,0,0,0,0,0,0,0,0
2020-02-12,0,0,0,0,0,0,0,0,0,0,0,0,0,0,0,0,0,0,0,0,0,0,0,0,0,0,0,0,0,0,0,0
2020-02-13,0,0,0,0,0,0,0,0,0,0,0,0,0,0,0,0,0,0,0,0,0,0,0,0,0,0,0,0,0,0,0,0
2020-02-14,0,0,0,0,0,0,0,0,0,0,0,0,0,0,0,0,0,0,0,0,0,0,0,0,0,0,0,0,0,0,0,0
2020-02-15,0,0,0,0,0,0,0,0,0,0,0,0,0,0,0,0,0,0,0,0,0,0,0,0,0,0,0,0,0,0,0,0
2020-02-16,0,0,0,0,0,0,0,0,0,0,0,0,0,0,0,0,0,0,0,0,0,0,0,0,0,0,0,0,0,0,0,0
2020-02-17,0,0,0,0,0,0,0,0,0,0,0,0,0,0,0,0,0,0,0,0,0,0,0,0,0,0,0,0,0,0,0,0
2020-02-18,0,0,0,0,0,0,0,0,0,0,0,0,0,0,0,0,0,0,0,0,0,0,0,0,0,0,0,0,0,0,0,0
2020-02-19,0,0,0,0,0,0,0,0,0,0,0,0,0,0,0,0,0,0,0,0,0,0,0,0,0,0,0,0,0,0,0,0
2020-02-20,0,0,0,0,0,0,0,0,0,0,0,0,0,0,0,0,0,0,0,0,0,0,0,0,0,0,0,0,0,0,0,0
2020-02-21,0,0,0,0,0,0,0,0,0,0,0,0,0,0,0,0,0,0,0,0,0,0,0,0,0,0,0,0,0,0,0,0
2020-02-22,0,0,0,0,0,0,0,0,0,0,0,0,0,0,0,0,0,0,0,0,0,0,0,0,0,0,0,0,0,0,0,0
2020-02-23,0,0,0,0,0,0,0,0,0,0,0,0,0,0,0,0,0,0,0,0,0,0,0,0,0,0,0,0,0,0,0,0
2020-02-24,0,0,0,0,0,0,0,0,0,0,0,0,0,0,0,0,0,0,0,0,0,0,0,0,0,0,0,0,0,0,0,0
2020-02-25,0,0,0,0,0,0,0,0,0,0,0,0,0,0,0,0,0,0,0,0,0,0,0,0,0,0,0,0,0,0,0,0
2020-02-26,0,0,0,0,0,0,0,0,0,0,0,0,0,0,0,0,0,0,0,0,0,0,0,0,0,0,0,0,0,0,0,0
2020-02-27,3,0,0,0,0,0,0,0,0,0,0,0,0,0,0,0,0,0,0,1,0,0,0,0,0,0,0,0,0,0,0,0
2020-02-28,0,1,0,0,0,0,0,0,0,0,0,0,0,0,0,0,0,0,0,0,0,0,0,0,0,1,0,0,0,0,0,0
2020-02-29,0,0,0,0,0,0,0,0,0,0,0,0,0,0,0,0,0,0,0,0,0,0,0,0,0,0,0,1,0,0,0,0
2020-03-01,0,0,0,0,0,0,0,0,0,0,0,0,0,0,0,0,0,0,0,0,0,0,0,0,0,0,0,0,0,0,0,0
2020-03-02,1,1,0,0,0,0,0,0,0,0,0,0,0,0,0,0,0,0,0,0,0,0,0,0,0,0,0,0,0,0,0,0
2020-03-03,0,0,0,0,0,0,0,0,0,0,0,0,0,0,0,0,0,0,0,0,0,0,0,0,0,0,0,0,0,0,0,0
2020-03-04,0,2,0,0,0,0,0,0,0,0,0,0,0,0,0,0,0,0,0,0,0,0,0,0,0,0,0,0,0,0,0,0
2020-03-05,1,0,0,0,0,0,0,0,0,0,0,0,0,0,0,0,0,0,0,0,0,0,0,0,0,0,0,0,0,0,0,0
2020-03-06,0,0,0,0,0,0,0,0,0,0,0,0,0,0,0,0,0,0,0,0,0,0,0,0,0,0,0,0,0,0,0,0
2020-03-07,1,0,0,0,0,0,0,0,0,0,0,0,0,0,0,0,0,0,0,0,0,0,0,0,0,0,0,0,0,0,0,0
2020-03-08,1,2,0,0,0,0,0,0,0,0,0,0,0,0,0,0,0,0,0,0,0,0,0,0,0,0,0,0,0,1,0,0
2020-03-09,0,1,0,0,0,0,0,0,0,0,0,0,0,0,0,0,0,0,0,0,0,0,0,1,0,0,0,0,0,0,0,0
2020-03-10,3,2,0,0,0,0,0,0,0,2,0,0,0,0,0,0,0,2,0,0,0,0,0,0,0,0,0,0,0,0,0,0
2020-03-11,12,2,1,0,0,0,0,0,1,4,0,0,0,0,0,1,2,1,0,0,0,0,0,0,0,2,1,0,0,0,0,0
2020-03-12,17,3,3,0,0,0,0,0,0,0,0,0,0,0,1,1,1,1,0,0,0,0,0,0,0,0,0,0,0,1,0,0
2020-03-13,24,12,3,1,1,0,0,0,0,5,0,1,0,0,0,4,0,2,0,0,0,0,2,0,0,0,1,0,2,0,0,2
2020-03-14,21,4,5,0,1,0,0,0,0,6,0,0,0,0,0,2,4,1,0,0,0,1,0,1,1,0,1,0,0,1,0,0
2020-03-15,10,10,2,0,0,1,2,0,0,0,0,2,0,0,4,3,0,0,0,1,1,0,0,0,0,0,0,0,0,0,0,0
2020-03-16,26,6,12,1,0,0,0,0,1,6,0,2,0,0,2,2,3,0,0,0,1,0,2,0,1,1,0,0,0,0,1,1
2020-03-17,34,7,6,1,0,1,0,0,3,6,1,0,0,0,6,3,4,2,0,2,0,1,5,1,0,2,1,0,0,0,0,5
2020-03-18,31,6,17,0,1,0,7,1,4,9,3,1,1,0,0,3,2,2,1,0,0,3,1,1,0,2,1,1,0,0,0,1
2020-03-19,39,12,10,2,1,0,5,0,5,4,2,1,1,0,2,5,5,3,1,0,1,1,0,0,0,3,0,0,1,0,0,3
2020-03-20,24,10,5,1,3,1,1,1,6,12,2,4,2,0,6,5,1,0,0,3,1,2,0,1,0,4,0,0,1,0,1,3
2020-03-21,12,5,1,0,1,1,1,1,3,4,0,11,5,0,0,4,3,1,0,3,0,1,1,1,0,0,1,0,1,0,1,4
2020-03-22,11,5,3,1,1,0,0,0,2,4,0,1,0,0,8,2,4,0,0,0,2,1,0,0,0,0,0,0,1,0,1,1
2020-03-23,25,14,8,2,0,3,4,4,10,5,3,6,3,1,5,8,4,3,2,1,1,4,1,2,0,1,1,3,2,1,0,2
2020-03-24,34,23,7,6,1,4,2,2,9,5,12,1,3,1,8,15,9,4,3,1,1,0,0,3,1,6,1,0,1,0,1,0
2020-03-25,25,25,7,8,2,3,2,0,7,0,3,4,2,0,3,6,11,2,0,5,0,17,3,0,0,0,1,2,3,0,0,0
2020-03-26,51,26,6,9,2,1,5,2,11,2,5,6,3,0,0,14,9,1,0,4,0,3,4,0,0,3,0,0,3,1,0,1
2020-03-27,38,43,7,9,2,5,1,4,16,8,11,5,1,1,2,9,7,4,0,4,1,6,3,0,0,4,0,5,1,3,4,6
2020-03-28,49,27,2,5,2,4,1,4,7,2,1,4,1,2,4,13,7,2,0,0,3,5,3,3,0,4,0,1,1,0,1,0
2020-03-29,35,18,2,6,5,0,1,1,21,3,9,1,3,0,2,4,3,1,0,2,3,3,1,1,0,7,0,0,2,1,0,6
2020-03-30,76,50,7,11,3,1,3,13,29,4,10,4,0,1,10,14,21,1,0,7,4,4,3,1,1,19,2,1,2,0,0,3
2020-03-31,50,33,7,15,5,5,2,7,45,0,11,2,4,0,4,21,14,4,2,7,5,1,4,1,1,14,2,2,6,0,0,2
2020-04-01,55,49,2,14,7,1,9,5,65,0,9,1,4,4,8,13,23,3,0,5,8,0,3,3,2,17,1,4,1,0,0,0
2020-04-02,71,48,8,28,6,3,6,11,29,5,15,2,0,1,2,18,11,1,0,1,1,0,1,8,0,18,0,2,0,2,1,0
2020-04-03,79,49,10,10,6,1,8,16,38,2,20,5,6,0,8,13,13,4,1,3,9,2,1,1,0,22,0,5,3,1,0,0
2020-04-04,56,35,2,12,8,7,2,6,24,3,3,3,2,2,2,10,9,1,4,2,3,0,2,3,0,11,0,1,2,0,1,3
2020-04-05,53,40,2,15,12,2,2,5,20,1,9,3,2,5,5,6,10,0,2,2,4,3,3,3,0,4,0,1,2,3,1,2
2020-04-06,116,81,3,27,10,11,6,23,67,10,7,7,6,8,12,22,32,4,2,3,10,4,8,8,0,26,1,5,6,2,1,3
2020-04-07,126,72,6,20,7,10,11,24,39,7,13,6,6,7,13,12,20,5,2,3,5,1,11,6,0,8,0,2,0,0,0,6
2020-04-08,124,88,9,29,10,11,5,24,59,9,17,8,4,6,9,20,26,3,2,1,3,1,6,6,0,18,0,5,5,0,2,3
2020-04-09,127,56,5,12,7,5,12,25,59,1,11,2,9,1,11,11,8,3,2,0,5,0,7,7,0,7,1,3,1,2,2,4
2020-04-10,146,86,8,33,12,5,9,9,48,21,15,2,3,5,4,8,22,2,0,7,9,2,5,2,0,11,0,3,2,1,0,1
2020-04-11,110,76,5,23,12,5,14,7,34,8,19,4,2,6,6,14,17,3,2,3,4,1,5,2,1,7,1,1,1,5,2,3
2020-04-12,113,85,5,22,9,3,9,5,43,15,27,1,4,2,7,4,22,1,4,5,9,2,12,4,2,6,0,0,2,2,1,0
2020-04-13,239,151,10,46,15,16,14,14,81,20,30,4,12,5,17,21,22,8,4,7,13,6,17,9,0,16,0,5,5,2,0,1
2020-04-14,242,158,4,48,11,6,13,17,102,18,47,4,16,7,18,14,18,8,2,9,19,2,7,10,0,16,0,5,4,4,1,1
2020-04-15,223,175,11,48,16,12,30,5,100,6,38,13,9,4,25,24,21,2,2,4,16,11,4,10,1,16,2,6,7,3,6,2
2020-04-16,242,182,8,40,24,7,39,9,81,12,43,14,8,7,12,19,32,6,3,5,28,6,11,8,2,4,2,3,5,4,3,2
2020-04-17,322,155,14,38,16,10,35,6,94,9,57,28,14,6,15,29,34,5,4,9,31,15,13,11,2,9,0,10,8,3,2,7
2020-04-18,195,157,7,30,11,14,18,4,46,6,48,10,7,4,5,24,41,2,3,6,14,12,8,9,1,7,2,4,6,6,7,1
2020-04-19,179,151,3,32,15,7,18,8,40,2,41,10,8,10,6,17,23,2,2,14,8,3,6,14,1,9,10,7,3,2,1,0
2020-04-20,426,254,9,62,31,7,35,7,107,11,73,14,28,8,26,28,44,6,1,16,25,15,15,28,1,9,4,9,7,5,9,1
2020-04-21,424,267,16,46,25,15,45,12,101,17,83,10,12,10,19,20,41,2,4,10,18,13,7,18,1,20,4,9,4,7,2,3
2020-04-22,391,243,25,48,30,17,29,4,86,15,63,13,12,7,22,26,34,7,4,16,28,10,13,32,1,14,2,11,10,6,2,3
2020-04-23,337,256,19,69,46,6,51,9,108,6,63,9,19,12,33,29,47,9,6,19,33,20,18,28,3,10,2,14,8,7,8,5
2020-04-24,499,299,32,74,36,19,48,13,86,7,63,12,22,15,33,37,23,10,4,17,25,11,23,30,2,14,2,12,15,5,5,4
2020-04-25,233,194,9,45,22,9,45,5,44,5,41,11,27,21,24,38,30,0,3,23,38,1,12,14,1,3,5,8,7,6,4,7
2020-04-26,210,197,9,38,21,15,29,6,62,7,40,7,20,13,20,22,32,2,5,16,34,6,17,27,0,4,7,11,13,8,3,3
2020-04-27,472,336,21,74,44,32,67,10,105,20,58,26,32,15,37,31,44,3,11,24,24,14,24,46,2,24,5,20,9,4,4,15
2020-04-28,519,326,14,49,47,15,73,4,92,26,57,17,29,25,42,42,40,8,13,25,39,24,25,26,0,16,3,9,17,6,10,17
2020-04-29,541,310,19,57,50,18,72,4,104,23,49,14,23,8,32,44,37,11,5,24,34,16,31,39,0,13,8,18,12,8,9,10
2020-04-30,495,287,26,60,53,27,60,14,82,27,83,16,26,15,59,43,32,6,13,31,17,25,18,33,3,21,2,14,12,7,4,10
2020-05-01,295,252,15,54,34,22,60,1,86,26,50,14,24,9,26,32,30,8,7,26,27,4,11,27,1,14,6,17,13,6,7,14
2020-05-02,293,222,26,51,37,31,63,8,58,22,45,9,16,15,27,41,64,12,15,21,26,4,38,27,0,5,6,10,6,11,7,14
2020-05-03,265,224,16,29,18,25,58,7,78,10,46,11,28,6,30,27,30,4,15,28,24,3,26,42,2,5,7,14,14,12,2,11
2020-05-04,684,458,26,73,39,61,93,7,129,41,82,33,42,24,47,47,32,8,15,32,37,45,51,45,2,26,3,31,22,18,5,29
2020-05-05,529,305,19,48,45,51,102,12,125,63,72,22,20,16,44,29,23,11,24,28,31,9,28,43,5,31,3,27,32,9,5,17
2020-05-06,626,292,25,79,30,39,104,10,103,26,96,28,33,23,33,39,39,9,15,38,40,15,44,51,1,35,5,34,22,15,11,34
2020-05-07,569,370,49,59,20,37,114,11,107,22,105,35,29,17,37,55,37,13,14,36,40,23,36,49,1,24,11,35,23,11,9,13
2020-05-08,668,353,25,56,32,53,98,8,123,27,80,42,44,20,34,40,26,26,5,32,28,12,38,33,2,17,10,34,18,13,9,26
2020-05-09,316,162,28,49,16,42,77,6,63,27,53,26,44,20,15,41,18,26,7,23,20,0,33,25,3,8,2,22,16,13,4,12
2020-05-10,283,176,21,34,20,26,65,9,56,22,61,19,22,14,26,31,22,18,8,21,20,4,31,29,1,13,1,19,26,7,2,19
2020-05-11,658,397,49,61,44,60,133,6,113,45,109,38,68,34,44,65,43,48,19,45,33,12,43,44,2,29,6,31,51,24,9,30
2020-05-12,621,270,33,79,24,55,113,15,103,36,86,50,58,36,53,60,36,34,19,51,31,41,53,51,6,26,12,45,69,20,3,23
2020-05-13,654,310,28,72,39,90,124,6,101,66,114,43,96,37,58,80,27,27,15,43,39,13,44,46,4,12,9,65,68,15,8,23
2020-05-14,581,240,51,91,32,54,151,8,90,35,125,51,74,20,53,83,39,41,16,55,30,21,62,28,12,23,6,67,60,10,13,32
2020-05-15,635,253,58,83,10,69,122,5,91,67,139,34,95,35,38,78,21,48,17,75,50,27,46,32,4,17,13,76,65,10,8,28
2020-05-16,334,126,16,45,15,30,98,9,50,27,85,30,37,27,28,43,17,25,3,43,40,3,27,10,2,6,1,31,59,12,2,25
2020-05-17,223,116,26,38,9,45,58,2,50,8,76,16,22,22,45,40,11,18,5,24,16,7,14,16,4,13,6,30,11,13,3,12
2020-05-18,668,235,48,75,6,56,57,7,110,36,113,50,54,35,49,75,40,47,16,74,39,34,20,27,4,32,6,77,81,15,4,30
2020-05-19,502,113,63,23,0,2,43,12,57,32,92,57,33,30,48,76,33,32,19,52,14,19,3,35,5,20,5,49,18,15,0,21
2020-05-20,254,60,31,1,0,0,17,4,19,36,85,6,7,4,26,44,20,12,8,36,3,22,1,11,5,2,13,33,24,9,11,24
2020-05-21,12,9,0,1,1,0,0,0,6,5,0,2,2,2,5,35,0,2,0,2,0,11,5,1,0,1,3,1,0,0,0,1
2020-05-22,1,4,0,0,0,0,0,0,0,0,0,0,0,0,0,0,0,0,0,0,0,0,0,0,0,0,0,0,0,0,0,0
