date,01,02,03,04,05,06,07,08,09,10,11,12,13,14,15,16,17,18,19,20,21,22,23,24,25,26,27,28,29,30,31,32
2020-01-01,0,0,0,0,0,0,0,0,0,0,0,0,0,0,0,0,0,0,0,0,0,0,0,0,0,0,0,0,0,0,0,0
2020-01-02,0,0,0,0,0,0,0,0,0,0,0,0,0,0,0,0,0,0,0,0,0,0,0,0,0,0,0,0,0,0,0,0
2020-01-03,0,0,0,0,0,0,0,0,0,0,0,0,0,0,0,0,0,0,0,0,0,0,0,0,0,0,0,0,0,0,0,0
2020-01-04,0,0,0,0,0,0,0,0,0,0,0,0,0,0,0,0,0,0,0,0,0,0,0,0,0,0,0,0,0,0,0,0
2020-01-05,0,0,0,0,0,0,0,0,0,0,0,0,0,0,0,0,0,0,0,0,0,0,0,0,0,0,0,0,0,0,0,0
2020-01-06,0,0,0,0,0,0,0,0,0,0,0,0,0,0,0,0,0,0,0,0,0,0,0,0,0,0,0,0,0,0,0,0
2020-01-07,0,0,0,0,0,0,0,0,0,0,0,0,0,0,0,0,0,0,0,0,0,0,0,0,0,0,0,0,0,0,0,0
2020-01-08,0,0,0,0,0,0,0,0,0,0,0,0,0,0,0,0,0,0,0,0,0,0,0,0,0,0,1,0,0,0,0,0
2020-01-09,0,0,0,0,0,0,0,0,0,0,0,0,0,0,0,0,0,0,0,0,0,0,0,0,0,0,1,0,0,0,0,0
2020-01-10,0,0,0,0,0,0,0,0,0,0,0,0,0,0,0,0,0,0,0,0,0,0,0,0,0,0,1,0,0,0,0,0
2020-01-11,0,0,0,0,0,0,0,0,0,0,0,0,0,0,0,0,0,0,0,0,0,0,0,0,0,0,1,0,0,0,0,0
2020-01-12,0,0,0,0,0,0,0,0,0,0,0,0,0,0,0,0,0,0,0,0,0,0,0,0,0,0,1,0,0,0,0,0
2020-01-13,0,0,0,0,0,0,0,0,0,0,0,0,0,0,0,0,0,0,0,0,0,0,0,0,0,0,1,0,0,0,0,0
2020-01-14,1,0,0,0,0,0,0,0,0,0,0,0,0,0,0,0,0,0,0,0,0,0,0,0,0,0,1,0,0,0,0,0
2020-01-15,1,0,0,0,0,0,0,0,0,0,0,0,0,0,0,0,0,0,0,0,0,0,0,0,0,0,1,0,0,0,0,0
2020-01-16,1,0,0,0,0,0,0,0,0,0,0,0,0,0,0,0,0,0,0,0,0,0,0,0,0,0,1,0,0,0,0,0
2020-01-17,1,0,0,0,0,0,0,0,0,0,0,0,0,0,0,0,0,0,0,0,0,0,0,0,0,0,1,0,0,0,0,0
2020-01-18,1,0,0,0,0,0,0,0,0,0,0,0,0,0,0,0,0,0,0,0,0,0,0,0,0,0,1,0,0,0,0,0
2020-01-19,1,0,0,0,0,0,0,0,0,0,0,0,0,0,0,0,0,0,0,0,0,0,0,0,0,0,1,0,0,0,0,0
2020-01-20,1,0,0,0,0,0,0,0,0,0,0,0,0,0,0,0,0,0,0,0,0,0,0,0,0,0,1,0,0,0,0,0
2020-01-21,1,0,0,0,0,0,0,0,0,0,0,0,0,0,0,0,0,0,0,0,0,0,0,0,0,0,1,0,0,0,0,0
2020-01-22,1,0,0,0,0,0,0,0,0,0,0,0,0,0,0,0,0,0,0,0,0,0,0,0,0,0,1,0,0,0,0,0
2020-01-23,1,0,0,0,0,0,0,0,0,0,0,0,0,0,0,0,0,0,0,0,0,0,0,0,0,0,1,0,0,0,0,0
2020-01-24,1,0,0,0,0,0,0,0,0,0,0,0,0,0,0,0,0,0,0,0,0,0,0,0,0,0,1,0,0,0,0,0
2020-01-25,1,0,0,0,0,0,0,0,0,0,0,0,0,0,0,0,0,0,0,0,0,0,0,0,0,0,1,0,0,0,0,0
2020-01-26,1,0,0,0,0,0,0,0,0,0,0,0,0,0,0,0,0,0,0,0,0,0,0,0,0,0,1,0,0,0,0,0
2020-01-27,1,0,0,0,0,0,0,0,0,0,0,0,0,0,0,0,0,0,0,0,0,0,0,0,0,0,1,0,0,0,0,0
2020-01-28,1,0,0,0,1,0,0,0,0,0,0,0,0,0,0,0,0,0,0,0,0,0,0,0,0,0,1,0,0,0,0,0
2020-01-29,1,0,0,0,1,0,0,0,0,0,0,0,0,0,0,0,0,0,0,0,0,0,0,0,0,0,1,0,0,0,0,0
2020-01-30,1,0,0,0,1,0,0,0,0,0,0,0,0,0,0,0,0,0,0,0,0,0,0,0,0,0,1,0,0,0,0,0
2020-01-31,1,0,0,0,1,0,0,0,1,0,0,0,0,0,0,0,0,0,0,0,0,0,0,0,0,0,1,0,0,0,0,0
2020-02-01,1,0,0,0,1,0,0,0,1,0,0,0,0,0,0,0,0,0,0,0,0,0,0,0,0,0,1,0,0,0,0,0
2020-02-02,1,0,0,0,1,0,0,0,1,0,0,0,0,0,0,0,0,0,0,0,0,0,0,0,0,0,1,0,0,0,0,0
2020-02-03,1,0,0,0,1,0,0,0,1,0,0,0,0,0,0,0,0,0,0,0,0,0,0,0,0,0,1,0,0,0,0,0
2020-02-04,1,0,0,0,1,0,0,0,1,0,0,0,0,0,0,0,0,0,0,0,0,0,0,0,0,0,1,0,0,0,0,0
2020-02-05,1,0,0,0,1,0,0,0,1,0,0,0,0,0,0,0,0,0,0,0,0,0,0,0,0,0,1,0,0,0,0,0
2020-02-06,1,0,0,0,1,0,0,0,1,0,0,0,0,0,0,0,0,0,0,0,0,0,0,0,0,0,1,0,0,0,0,0
2020-02-07,1,0,0,0,1,0,0,0,1,0,1,0,0,0,0,0,0,0,0,0,0,0,0,0,0,0,1,0,0,0,0,0
2020-02-08,1,0,0,0,1,0,0,0,1,0,1,0,0,0,0,0,0,0,0,0,0,0,0,0,0,0,1,0,0,0,0,0
2020-02-09,1,0,0,0,1,0,0,0,1,0,1,0,0,0,0,0,0,0,0,0,0,0,0,0,0,0,1,0,0,0,0,0
2020-02-10,1,0,0,0,1,0,0,0,1,0,1,0,0,0,0,0,0,0,0,0,0,0,0,0,0,0,1,0,0,0,0,0
2020-02-11,1,0,0,0,1,0,0,0,1,0,1,0,0,0,0,0,0,0,0,0,0,0,0,0,0,0,1,0,0,0,0,0
2020-02-12,1,0,0,0,1,0,0,0,1,0,1,0,0,0,0,0,0,0,0,0,0,0,0,0,0,0,1,0,0,0,0,0
2020-02-13,1,0,0,0,1,0,0,0,1,0,1,0,0,0,0,0,0,0,0,0,0,0,0,0,0,0,1,0,0,0,0,0
2020-02-14,1,0,0,0,1,0,0,0,1,0,1,0,0,0,0,0,0,0,0,0,0,0,0,0,0,0,1,0,0,0,0,0
2020-02-15,1,0,0,0,1,0,0,0,1,0,1,0,0,0,0,0,0,0,0,0,0,0,0,0,0,0,1,0,0,0,0,0
2020-02-16,1,0,0,0,1,0,0,0,1,0,1,0,0,0,0,0,0,0,0,0,0,0,0,0,0,0,1,0,0,0,0,0
2020-02-17,1,0,0,0,1,0,0,0,1,0,1,0,0,0,0,0,0,0,0,0,0,0,0,0,0,0,1,0,0,0,0,0
2020-02-18,1,0,0,0,1,0,0,0,2,0,1,0,0,0,0,0,0,0,0,0,0,0,0,0,0,0,1,0,0,0,0,0
2020-02-19,1,0,0,0,1,0,0,0,2,0,1,0,0,0,0,0,0,0,0,0,0,0,0,0,0,0,1,0,0,0,0,0
2020-02-20,1,0,0,0,1,0,0,0,2,0,1,0,0,0,0,0,0,0,0,0,0,0,0,0,0,0,1,0,0,0,0,0
2020-02-21,1,0,0,0,1,0,0,0,2,0,1,0,0,0,0,0,0,0,0,0,0,0,0,0,0,0,1,0,0,0,0,0
2020-02-22,1,0,0,0,1,0,0,0,2,0,1,0,0,0,0,0,0,0,0,0,0,0,0,0,0,0,1,0,0,0,0,0
2020-02-23,1,0,0,0,1,0,0,0,2,0,1,0,0,0,0,0,0,0,0,0,0,0,0,0,0,0,1,0,0,0,0,0
2020-02-24,1,0,0,0,1,0,0,0,2,0,1,0,0,0,0,0,0,0,0,0,0,0,0,0,0,0,1,0,0,0,0,0
2020-02-25,1,0,0,0,1,0,0,0,2,0,1,0,0,0,0,0,0,0,0,0,0,0,0,0,0,0,1,0,0,0,0,0
2020-02-26,1,0,0,0,1,0,0,0,2,0,1,0,0,0,0,0,0,0,0,0,0,0,0,0,0,0,1,0,0,0,0,0
2020-02-27,1,0,0,0,1,0,0,0,5,0,1,0,1,0,0,0,0,0,0,0,0,0,0,0,0,0,1,0,0,0,0,0
2020-02-28,1,0,0,0,2,0,0,0,5,0,1,0,1,0,1,0,0,0,0,0,0,0,0,0,0,0,1,0,0,0,0,0
2020-02-29,1,0,0,0,2,0,1,0,5,0,1,0,1,0,1,0,0,0,0,0,0,0,0,0,0,0,1,0,0,0,0,0
2020-03-01,1,0,0,0,2,0,1,0,5,0,1,0,1,0,1,0,0,0,0,0,0,0,0,0,0,0,1,0,0,0,0,0
2020-03-02,1,0,0,0,2,0,1,0,6,0,1,0,1,0,2,0,0,0,0,0,0,0,0,0,0,0,1,0,0,0,0,0
2020-03-03,1,0,0,0,2,0,1,0,6,0,1,0,1,0,2,0,0,0,0,0,0,0,0,0,0,0,1,0,0,0,0,0
2020-03-04,1,0,0,0,2,0,1,0,6,0,1,0,1,0,4,0,0,0,0,0,0,0,0,0,0,0,1,0,0,0,0,0
2020-03-05,1,0,0,0,2,0,1,0,7,0,1,0,1,0,4,0,0,0,0,0,0,0,0,0,0,0,1,0,0,0,0,0
2020-03-06,1,0,0,0,2,0,1,0,7,0,1,0,1,0,4,0,0,0,0,0,0,0,0,0,0,0,1,0,0,0,0,0
2020-03-07,1,0,0,0,2,0,1,0,8,0,1,0,1,0,4,0,0,0,0,0,0,0,0,0,0,0,1,0,0,0,0,0
2020-03-08,1,0,0,1,2,0,1,0,9,0,1,0,1,0,6,0,0,0,0,0,0,0,0,0,0,0,1,0,0,0,0,0
2020-03-09,1,0,0,1,2,0,1,0,9,0,1,0,1,0,7,0,1,0,0,0,0,0,0,0,0,0,1,0,0,0,0,0
2020-03-10,1,0,0,1,2,0,1,0,12,0,1,0,1,0,9,0,1,0,2,0,0,2,0,0,0,0,1,0,0,0,0,0
2020-03-11,1,1,0,1,4,0,1,0,24,1,1,0,1,1,11,0,1,0,6,0,1,3,2,0,0,0,1,0,0,0,0,0
2020-03-12,1,1,0,2,4,0,1,0,41,1,1,0,1,4,14,0,1,0,6,0,2,4,3,0,0,0,1,0,0,0,1,0
2020-03-13,1,1,0,2,4,0,1,1,65,2,2,2,1,7,26,0,1,0,11,2,6,6,3,2,1,0,1,0,0,0,1,0
2020-03-14,2,1,0,3,4,1,1,2,86,3,2,2,1,12,30,0,2,0,17,2,8,7,7,2,1,0,1,0,0,0,1,0
2020-03-15,2,1,0,3,4,1,1,2,96,3,4,2,2,14,40,0,2,0,17,2,11,7,7,2,1,1,1,1,0,2,5,0
2020-03-16,2,2,0,3,5,2,1,2,122,3,6,4,2,26,46,0,2,0,23,2,13,7,10,3,2,1,1,2,0,2,7,1
2020-03-17,3,5,0,3,7,2,1,2,156,4,6,9,4,32,53,0,3,0,29,2,16,9,14,8,3,2,2,2,0,2,13,1
2020-03-18,5,9,1,3,9,2,2,3,187,5,7,10,4,49,59,1,4,1,38,2,19,11,16,9,3,2,4,2,0,9,13,1
2020-03-19,6,14,1,3,12,2,2,4,226,5,8,10,4,59,71,2,4,2,42,3,24,14,21,12,5,2,6,3,0,14,15,1
2020-03-20,8,20,2,3,16,2,2,7,250,5,12,10,7,64,81,4,5,2,54,4,29,14,22,15,6,3,8,4,0,15,21,2
2020-03-21,9,23,3,3,16,2,2,8,261,6,23,11,10,65,87,9,6,2,58,5,33,15,25,19,6,4,8,4,0,16,21,3
2020-03-22,10,25,3,3,16,2,2,9,272,6,24,11,10,68,92,9,6,2,62,6,35,15,29,20,7,4,8,6,0,16,29,4
2020-03-23,14,35,7,4,17,2,5,9,297,7,30,12,11,76,106,12,8,4,67,8,43,18,33,22,9,7,11,7,1,20,34,4
2020-03-24,14,44,9,4,22,3,5,10,330,8,31,12,12,83,129,15,11,7,72,9,58,22,42,22,15,11,23,8,3,22,42,5
2020-03-25,31,51,9,4,22,3,7,12,355,9,35,15,17,90,153,17,11,7,72,12,64,24,53,22,23,14,26,8,3,24,45,5
2020-03-26,34,62,11,5,25,3,7,14,406,9,41,19,21,96,179,20,11,7,74,15,78,25,62,23,32,15,31,8,3,28,45,5
2020-03-27,40,78,15,8,29,3,12,16,443,9,46,22,25,103,221,21,11,7,82,16,87,28,69,29,41,20,42,9,4,29,47,9
2020-03-28,45,85,19,8,33,3,13,18,491,9,50,25,25,105,247,22,13,7,84,17,100,28,76,29,46,24,43,12,6,30,51,10
2020-03-29,48,106,20,9,40,3,13,23,526,9,51,26,27,107,265,25,14,7,87,19,104,29,79,35,52,24,52,15,6,31,53,10
2020-03-30,52,135,33,9,59,4,14,26,602,11,55,29,34,114,315,25,15,7,91,21,118,30,100,38,63,25,62,19,7,34,63,10
2020-03-31,53,180,40,9,73,5,16,31,651,13,57,33,41,121,348,29,16,9,91,27,139,34,114,40,78,30,73,24,7,36,67,10
2020-04-01,53,244,45,9,90,7,20,38,706,14,58,36,46,123,396,33,19,9,91,28,152,38,137,40,92,31,82,32,11,45,75,10
2020-04-02,53,273,56,11,108,7,22,44,777,14,60,37,47,131,443,33,27,9,96,28,170,39,148,40,120,34,97,33,12,50,77,11
2020-04-03,54,312,72,12,130,7,27,49,856,14,65,38,50,141,488,39,28,10,98,31,184,43,161,40,130,35,117,41,12,58,85,11
2020-04-04,54,336,78,12,140,7,28,57,910,14,68,40,52,142,523,41,31,14,101,33,194,44,170,43,141,42,120,44,14,60,87,12
2020-04-05,57,356,83,15,144,7,29,69,960,14,71,43,53,144,561,43,34,16,103,35,200,44,180,44,156,44,129,48,20,62,92,13
2020-04-06,61,424,106,17,170,7,34,79,1074,15,78,51,56,147,639,49,42,18,113,41,222,48,212,46,183,55,136,58,28,68,104,14
2020-04-07,62,462,130,17,178,7,36,84,1197,15,84,62,59,153,710,54,49,20,119,41,234,52,232,50,203,65,149,63,35,79,115,14
2020-04-08,63,521,154,17,196,7,41,94,1318,15,92,68,60,162,796,58,55,22,128,45,254,55,258,51,232,76,166,66,41,84,124,16
2020-04-09,63,580,179,19,203,7,44,100,1446,16,94,75,60,167,852,67,62,24,129,45,265,58,266,55,244,81,177,71,42,96,135,17
2020-04-10,65,626,188,20,214,7,47,111,1591,16,96,80,67,175,937,70,64,24,150,47,273,60,289,56,277,86,191,80,47,105,139,17
2020-04-11,66,659,195,25,221,8,48,121,1699,17,100,85,70,180,1011,72,66,26,158,48,287,63,306,58,300,91,210,84,53,119,145,19
2020-04-12,68,699,200,27,227,10,48,130,1810,17,101,97,75,185,1093,76,70,30,173,50,291,64,327,58,322,94,237,93,55,128,152,20
2020-04-13,75,780,214,29,242,10,53,145,2043,17,104,114,82,195,1242,89,79,34,193,55,312,72,349,59,368,110,266,106,60,142,169,20
2020-04-14,76,881,231,33,258,10,58,156,2279,17,107,121,89,199,1391,105,89,36,211,59,325,79,367,60,416,116,314,125,67,155,187,21
2020-04-15,87,977,236,36,274,11,64,172,2497,19,120,126,93,210,1562,114,99,38,217,66,349,82,388,62,465,129,350,141,71,185,212,27
2020-04-16,93,1060,245,40,277,13,67,192,2733,21,134,136,97,218,1738,122,107,41,231,70,369,87,420,64,505,135,393,169,78,224,224,30
2020-04-17,110,1148,251,43,286,15,77,207,3050,21,162,149,106,232,1892,135,118,45,242,78,398,92,455,71,543,145,449,200,84,258,239,32
2020-04-18,123,1188,255,49,292,16,81,217,3233,23,172,158,112,239,2045,142,127,48,248,83,422,94,495,72,573,158,497,212,88,276,244,39
2020-04-19,126,1223,263,51,301,17,88,230,3408,33,182,164,124,243,2195,150,140,50,249,86,438,96,518,72,606,165,537,220,98,294,250,40
2020-04-20,142,1320,270,56,310,18,97,260,3819,37,196,179,136,252,2443,178,168,51,261,93,466,102,562,73,667,172,610,246,106,330,275,49
2020-04-21,155,1404,282,63,329,19,106,282,4236,41,206,186,146,268,2704,190,190,55,279,95,486,104,603,74,714,187,693,266,116,374,294,51
2020-04-22,168,1478,287,69,343,20,117,310,4608,43,219,200,162,294,2939,202,223,59,292,104,513,110,636,74,763,203,755,294,123,403,314,53
2020-04-23,188,1582,294,76,352,23,131,348,4926,45,228,218,182,312,3181,221,251,64,299,112,543,119,681,78,831,209,820,327,135,454,346,61
2020-04-24,199,1669,307,80,366,25,144,380,5400,47,240,241,197,344,3470,243,286,68,306,123,580,128,705,82,903,228,883,353,149,503,379,66
2020-04-25,200,1713,312,86,369,26,152,400,5623,52,251,253,214,353,3655,270,303,71,312,130,618,128,735,89,946,237,924,391,169,546,403,70
2020-04-26,207,1768,318,94,373,26,163,415,5805,59,258,269,231,361,3844,289,338,75,319,139,640,130,767,92,982,252,964,424,181,575,423,73
2020-04-27,223,1862,328,98,397,28,183,453,6248,65,284,294,255,380,4176,319,388,86,339,146,672,133,810,105,1055,282,1022,451,196,642,460,77
2020-04-28,252,1949,332,104,413,28,192,490,6729,68,301,318,275,395,4477,348,419,101,365,158,714,142,850,121,1103,294,1079,490,221,715,502,87
2020-04-29,269,2049,336,110,426,28,211,533,7196,76,315,347,298,413,4756,370,475,108,390,168,761,152,883,130,1158,312,1128,525,229,784,534,96
2020-04-30,291,2116,345,116,447,31,225,565,7626,78,331,363,328,435,4990,397,521,120,418,174,806,157,908,140,1216,333,1210,543,244,835,592,100
2020-05-01,295,2173,345,122,462,32,241,589,7850,84,345,372,352,451,5146,416,556,127,445,182,840,165,936,154,1258,348,1257,569,253,890,615,107
2020-05-02,297,2205,353,132,466,32,252,618,8065,90,353,410,370,478,5239,431,581,141,468,185,882,175,956,165,1305,377,1300,587,268,948,641,114
2020-05-03,299,2251,359,144,468,33,265,631,8265,97,364,436,395,494,5331,454,629,155,479,195,911,178,979,175,1332,395,1343,610,274,999,668,116
2020-05-04,329,2318,364,159,490,35,296,653,8818,100,397,484,423,519,5576,496,679,170,515,211,953,187,1000,203,1393,444,1419,642,295,1077,714,121
2020-05-05,330,2362,369,165,517,40,321,668,9187,103,415,502,448,536,5749,512,724,194,576,219,983,198,1023,219,1425,483,1485,669,311,1152,751,126
2020-05-06,330,2404,379,178,551,41,353,673,9503,106,440,528,484,558,5879,542,761,207,598,232,1011,207,1059,248,1455,499,1548,699,332,1182,783,136
2020-05-07,330,2423,384,185,561,42,381,674,9641,113,471,531,512,586,5958,565,790,213,618,244,1048,217,1078,256,1466,503,1610,713,345,1203,816,145
2020-05-08,330,2426,385,191,562,43,394,674,9734,115,473,531,532,592,5986,569,803,217,632,250,1067,231,1081,264,1470,504,1652,730,358,1204,828,150
2020-05-09,330,2428,387,193,562,44,394,674,9737,115,473,531,540,593,5988,569,803,220,641,250,1068,232,1081,264,1470,504,1652,737,358,1205,829,150
2020-05-10,330,2428,387,193,562,44,394,674,9737,115,473,531,540,593,5988,569,803,220,641,250,1068,232,1081,264,1470,504,1652,737,358,1205,829,150
