date,02,12,14,27,21,15,19,09,28,30,08,05,23,31,25,29,17,11,06,22,03,26,01,20,32,07,13,16,10,18,24,04
2020-01-01,0,0,0,0,0,0,0,0,0,0,0,0,0,0,0,0,0,0,0,0,0,0,0,0,0,0,0,0,0,0,0,0
2020-01-02,0,0,0,0,0,0,0,0,0,0,0,0,0,0,0,0,0,0,0,0,0,0,0,0,0,0,0,0,0,0,0,0
2020-01-03,0,0,0,0,0,0,0,0,0,0,0,0,0,0,0,0,0,0,0,0,0,0,0,0,0,0,0,0,0,0,0,0
2020-01-04,0,0,0,0,0,0,0,0,0,0,0,0,0,0,0,0,0,0,0,0,0,0,0,0,0,0,0,0,0,0,0,0
2020-01-05,0,0,0,0,0,0,0,0,0,0,0,0,0,0,0,0,0,0,0,0,0,0,0,0,0,0,0,0,0,0,0,0
2020-01-06,0,0,0,0,0,0,0,0,0,0,0,0,0,0,0,0,0,0,0,0,0,0,0,0,0,0,0,0,0,0,0,0
2020-01-07,0,0,0,0,0,0,0,0,0,0,0,0,0,0,0,0,0,0,0,0,0,0,0,0,0,0,0,0,0,0,0,0
2020-01-08,0,0,0,0,0,0,0,0,0,0,0,0,0,0,0,0,0,0,0,0,0,0,0,0,0,0,0,0,0,0,0,0
2020-01-09,0,0,0,0,0,0,0,0,0,0,0,0,0,0,0,0,0,0,0,0,0,0,0,0,0,0,0,0,0,0,0,0
2020-01-10,0,0,0,0,0,0,0,0,0,0,0,0,0,0,0,0,0,0,0,0,0,0,0,0,0,0,0,0,0,0,0,0
2020-01-11,0,0,0,0,0,0,0,0,0,0,0,0,0,0,0,0,0,0,0,0,0,0,0,0,0,0,0,0,0,0,0,0
2020-01-12,0,0,0,0,0,0,0,0,0,0,0,0,0,0,0,0,0,0,0,0,0,0,0,0,0,0,0,0,0,0,0,0
2020-01-13,0,0,0,0,0,0,0,0,0,0,0,0,0,0,0,0,0,0,0,0,0,0,0,0,0,0,0,0,0,0,0,0
2020-01-14,0,0,0,0,0,0,0,0,0,0,0,0,0,0,0,0,0,0,0,0,0,0,1,0,0,0,0,0,0,0,0,0
2020-01-15,0,0,0,0,0,0,0,0,0,0,0,0,0,0,0,0,0,0,0,0,0,0,1,0,0,0,0,0,0,0,0,0
2020-01-16,0,0,0,0,0,0,0,0,0,0,0,0,0,0,0,0,0,0,0,0,0,0,1,0,0,0,0,0,0,0,0,0
2020-01-17,0,0,0,0,0,0,0,0,0,0,0,0,0,0,0,0,0,0,0,0,0,0,1,0,0,0,0,0,0,0,0,0
2020-01-18,0,0,0,0,0,0,0,0,0,0,0,0,0,0,0,0,0,0,0,0,0,0,1,0,0,0,0,0,0,0,0,0
2020-01-19,0,0,0,0,0,0,0,0,0,0,0,0,0,0,0,0,0,0,0,0,0,0,1,0,0,0,0,0,0,0,0,0
2020-01-20,0,0,0,0,0,0,0,0,0,0,0,0,0,0,0,0,0,0,0,0,0,0,1,0,0,0,0,0,0,0,0,0
2020-01-21,0,0,0,0,0,0,0,0,0,0,0,0,0,0,0,0,0,0,0,0,0,0,1,0,0,0,0,0,0,0,0,0
2020-01-22,0,0,0,0,0,0,0,0,0,0,0,0,0,0,0,0,0,0,0,0,0,0,1,0,0,0,0,0,0,0,0,0
2020-01-23,0,0,0,0,0,0,0,0,0,0,0,0,0,0,0,0,0,0,0,0,0,0,1,0,0,0,0,0,0,0,0,0
2020-01-24,0,0,0,0,0,0,0,0,0,0,0,0,0,0,0,0,0,0,0,0,0,0,1,0,0,0,0,0,0,0,0,0
2020-01-25,0,0,0,0,0,0,0,0,0,0,0,0,0,0,0,0,0,0,0,0,0,0,1,0,0,0,0,0,0,0,0,0
2020-01-26,0,0,0,0,0,0,0,0,0,0,0,0,0,0,0,0,0,0,0,0,0,0,1,0,0,0,0,0,0,0,0,0
2020-01-27,0,0,0,0,0,0,0,0,0,0,0,0,0,0,0,0,0,0,0,0,0,0,1,0,0,0,0,0,0,0,0,0
2020-01-28,0,0,0,0,0,0,0,0,0,0,0,1,0,0,0,0,0,0,0,0,0,0,1,0,0,0,0,0,0,0,0,0
2020-01-29,0,0,0,0,0,0,0,0,0,0,0,1,0,0,1,0,0,0,0,0,0,0,1,0,0,0,0,0,0,0,0,0
2020-01-30,0,0,0,0,0,0,0,0,0,0,0,1,0,0,1,0,0,0,0,0,0,0,1,0,0,0,0,0,0,0,0,0
2020-01-31,0,0,0,0,0,0,0,0,0,0,0,1,0,0,1,0,0,0,0,0,0,0,1,0,0,0,0,0,0,0,0,0
2020-02-01,0,0,0,0,0,0,0,0,0,0,0,1,0,0,1,0,0,0,0,0,0,0,1,0,0,0,0,0,0,0,0,0
2020-02-02,0,0,0,0,0,0,0,0,0,0,0,1,0,0,1,0,0,0,0,0,0,0,1,0,0,0,0,0,0,0,0,0
2020-02-03,0,0,0,0,0,0,0,0,0,0,0,1,0,0,1,0,0,0,0,0,0,0,1,0,0,0,0,0,0,0,0,0
2020-02-04,0,0,0,0,0,0,0,0,0,0,0,1,0,0,1,0,0,0,0,0,0,0,1,0,0,0,0,0,0,0,0,0
2020-02-05,0,0,0,0,0,0,0,0,0,0,0,1,0,0,1,0,0,0,0,0,0,0,1,0,0,0,0,0,0,0,0,0
2020-02-06,0,0,0,0,0,0,0,0,0,0,0,1,0,0,1,0,0,0,0,0,0,0,1,0,0,0,0,0,0,0,0,0
2020-02-07,0,0,0,0,0,0,0,0,0,0,0,1,0,0,1,0,0,0,0,0,0,0,1,0,0,0,0,0,0,0,0,0
2020-02-08,0,0,0,0,0,0,0,0,0,0,0,1,0,0,1,0,0,0,0,0,0,0,1,0,0,0,0,0,0,0,0,0
2020-02-09,0,0,0,0,0,0,0,0,0,0,0,1,0,0,1,0,0,0,0,0,0,0,1,0,0,0,0,0,0,0,0,0
2020-02-10,0,0,0,0,0,0,0,0,0,0,0,1,0,0,1,0,0,0,0,0,0,0,1,0,0,0,0,0,0,0,0,0
2020-02-11,0,0,0,0,0,0,0,0,0,0,0,1,0,0,1,0,0,0,0,0,0,0,1,0,0,0,0,0,0,0,0,0
2020-02-12,1,0,0,0,0,0,0,0,0,0,0,1,0,0,1,0,0,0,0,0,0,0,1,0,0,0,0,0,0,0,0,0
2020-02-13,1,0,0,0,0,0,0,0,0,0,0,1,0,0,1,0,0,0,0,0,0,0,1,0,0,0,0,0,0,0,0,0
2020-02-14,1,0,0,0,0,0,0,0,0,0,0,1,0,0,1,0,0,0,0,0,0,0,1,0,0,0,0,0,0,0,0,0
2020-02-15,1,0,0,0,0,0,0,0,0,0,0,1,0,0,1,0,0,0,0,0,0,0,1,0,0,0,0,0,0,0,0,0
2020-02-16,1,0,0,0,0,0,0,0,0,0,0,1,0,0,1,0,0,0,0,0,0,0,1,0,0,0,0,0,0,0,0,0
2020-02-17,1,0,0,0,0,0,0,0,0,0,0,1,0,0,1,0,0,0,0,0,0,0,1,0,0,0,0,0,0,0,0,0
2020-02-18,1,0,0,0,0,0,0,0,0,0,0,1,0,0,1,0,0,0,0,0,0,0,1,0,0,0,0,0,0,0,0,0
2020-02-19,1,0,0,0,0,0,0,0,0,0,0,1,0,0,1,0,0,0,0,0,0,0,1,0,0,0,0,0,0,0,0,0
2020-02-20,1,0,0,0,0,0,0,0,0,0,0,1,0,0,1,0,0,0,0,0,0,0,1,0,0,0,0,0,0,0,0,0
2020-02-21,1,0,0,0,0,0,0,0,0,0,0,1,0,0,1,0,0,0,0,0,0,0,1,0,0,0,0,0,0,0,0,0
2020-02-22,1,0,0,0,0,0,0,0,0,0,0,1,0,0,1,0,0,0,0,0,0,0,1,0,0,0,0,0,0,0,0,0
2020-02-23,1,0,0,0,0,0,0,0,0,0,0,1,0,0,1,0,0,0,0,0,0,0,1,0,0,0,0,0,0,0,0,0
2020-02-24,1,0,0,0,0,0,0,0,0,0,0,1,0,0,1,0,0,0,0,0,0,0,1,0,0,0,0,0,0,0,0,0
2020-02-25,1,0,0,0,0,0,0,0,0,0,0,1,0,0,1,0,0,0,0,0,0,0,1,0,0,0,0,0,0,0,0,0
2020-02-26,1,0,0,0,0,0,0,0,0,0,0,1,0,0,1,0,0,0,0,0,0,0,1,0,0,0,0,0,0,0,0,0
2020-02-27,1,0,0,0,0,0,0,3,0,0,0,1,0,0,1,0,0,0,0,0,0,0,1,0,0,0,1,0,0,0,0,0
2020-02-28,1,0,0,0,0,1,0,3,0,0,0,2,0,0,1,0,0,0,0,0,0,0,1,0,0,0,1,0,0,0,0,0
2020-02-29,1,0,0,0,0,1,0,3,0,0,0,2,0,0,1,0,0,0,0,0,0,0,1,0,0,1,1,0,0,0,0,0
2020-03-01,1,0,0,0,0,1,0,3,0,0,0,2,0,0,1,0,0,0,0,0,0,0,1,0,0,1,1,0,0,0,0,0
2020-03-02,1,0,0,0,0,2,0,4,0,0,0,2,0,0,1,0,0,0,0,0,0,0,1,0,0,1,1,0,0,0,0,0
2020-03-03,1,0,0,0,0,2,0,4,0,0,0,2,0,0,1,0,0,0,0,0,0,0,1,0,0,1,1,0,0,0,0,0
2020-03-04,1,0,0,0,0,4,0,4,0,0,0,2,0,0,1,0,0,0,0,0,0,0,1,0,0,1,1,0,0,0,0,0
2020-03-05,1,0,0,0,0,4,0,5,0,0,0,2,0,0,1,0,0,0,0,0,0,0,1,0,0,1,1,0,0,0,0,0
2020-03-06,1,0,0,0,0,4,0,5,0,0,0,2,0,0,1,0,0,0,0,0,0,0,1,0,0,1,1,0,0,0,0,0
2020-03-07,1,0,0,0,0,4,0,6,0,0,0,2,0,0,1,0,0,0,0,0,0,0,1,0,0,1,1,0,0,0,0,0
2020-03-08,1,0,0,0,0,6,0,7,0,0,0,2,0,0,1,0,0,0,0,0,0,0,1,0,0,1,1,0,0,0,0,1
2020-03-09,1,0,0,0,0,7,0,7,0,0,0,2,0,0,1,0,1,0,0,0,0,0,1,0,0,1,1,0,0,0,0,1
2020-03-10,1,0,0,0,0,9,2,10,0,0,0,2,0,0,1,0,1,0,0,2,0,0,1,0,0,1,1,0,0,0,0,1
2020-03-11,2,0,1,0,1,11,6,22,0,0,0,4,2,0,1,0,1,0,0,3,0,0,1,0,0,1,1,0,1,0,0,1
2020-03-12,2,0,4,0,2,14,6,39,0,0,0,4,3,1,1,0,1,0,0,4,0,0,1,0,0,1,1,0,1,0,0,2
2020-03-13,2,2,7,0,6,26,11,63,0,0,1,4,3,1,2,0,1,1,0,6,0,0,1,2,0,1,1,0,2,0,2,2
2020-03-14,2,2,12,0,8,30,17,84,0,0,2,4,7,1,2,0,2,1,1,7,0,0,2,2,0,1,1,0,3,0,2,3
2020-03-15,2,2,14,0,11,40,17,94,1,2,2,4,7,5,2,0,2,3,1,7,0,1,2,2,0,1,2,0,3,0,2,3
2020-03-16,3,4,26,0,13,46,23,120,2,2,2,5,10,7,3,0,2,5,2,7,0,1,2,2,1,1,2,0,3,0,3,3
2020-03-17,6,9,32,1,16,53,29,154,2,2,2,7,14,13,4,0,3,5,2,9,0,2,3,2,1,1,4,0,4,0,8,3
2020-03-18,10,10,49,4,19,59,38,185,2,9,3,9,16,13,4,0,4,6,2,11,1,2,6,2,1,2,4,1,5,1,9,3
2020-03-19,15,10,59,6,24,71,42,224,3,14,4,12,21,15,6,0,4,7,2,14,1,2,7,3,1,2,4,2,5,2,12,3
2020-03-20,21,10,64,8,29,81,54,248,4,15,7,16,22,21,7,0,5,11,2,14,2,3,9,4,2,2,7,4,5,2,15,3
2020-03-21,24,11,65,8,33,86,58,260,4,16,8,16,25,21,7,0,6,22,2,15,3,4,10,5,3,2,10,9,6,2,19,3
2020-03-22,26,11,68,8,35,91,62,271,6,16,9,16,29,29,8,0,6,23,2,15,3,4,11,6,4,2,10,9,6,2,20,3
2020-03-23,36,12,76,11,43,105,67,296,7,20,9,17,33,34,10,1,8,29,2,18,7,7,15,8,4,5,11,12,7,4,22,4
2020-03-24,45,12,83,23,58,128,72,330,8,22,10,23,42,42,16,2,11,30,3,22,9,11,15,9,5,5,12,15,8,7,22,4
2020-03-25,52,15,90,26,64,153,72,355,8,24,12,23,53,45,24,2,11,34,3,24,9,14,32,12,5,7,17,17,9,7,22,4
2020-03-26,63,20,96,31,78,180,74,406,8,29,14,26,62,45,33,2,11,40,3,25,11,15,35,15,5,7,21,20,9,7,23,5
2020-03-27,79,23,103,42,87,223,82,444,9,30,16,30,69,47,42,3,11,45,3,29,15,20,41,16,9,12,25,21,9,7,29,8
2020-03-28,86,26,105,43,100,250,84,493,12,31,18,34,76,51,47,5,14,49,3,31,19,24,46,17,9,13,25,22,9,8,29,8
2020-03-29,107,27,107,52,104,268,87,528,15,32,23,42,79,53,53,5,15,50,3,32,20,24,49,19,9,13,27,25,9,8,35,9
2020-03-30,136,29,114,62,118,318,91,605,19,35,26,60,100,63,64,6,16,54,4,33,33,25,53,21,9,14,34,25,11,8,38,9
2020-03-31,181,33,121,73,139,351,91,656,24,37,31,74,114,67,79,6,17,56,5,37,40,30,54,27,9,16,41,29,13,10,40,9
2020-04-01,246,36,123,82,152,402,91,711,32,46,38,91,137,75,93,10,20,57,7,40,45,31,54,28,9,20,46,33,14,10,40,9
2020-04-02,275,37,131,97,170,450,96,782,33,52,44,109,148,77,121,11,28,59,7,41,56,34,54,28,10,22,47,33,14,10,40,11
2020-04-03,313,38,141,117,183,499,98,862,42,60,50,131,161,85,131,11,29,64,7,45,72,35,56,31,10,27,50,39,14,11,40,12
2020-04-04,337,40,143,120,193,533,101,918,45,62,58,142,170,87,143,13,32,67,7,46,78,42,56,33,11,28,52,41,14,15,43,12
2020-04-05,357,43,145,129,199,573,102,972,49,64,70,146,180,92,158,19,35,70,7,46,83,44,59,35,12,29,54,43,14,17,45,15
2020-04-06,424,51,148,136,221,655,112,1089,59,70,80,172,212,104,185,27,43,77,7,50,106,55,63,40,13,34,57,49,15,19,48,17
2020-04-07,464,62,154,149,233,726,119,1215,64,81,87,180,232,117,205,34,49,83,7,55,130,65,64,40,13,36,60,55,15,21,54,17
2020-04-08,523,68,163,166,253,814,128,1340,67,86,97,198,258,126,234,40,55,91,7,58,154,76,65,45,15,41,61,59,15,23,57,17
2020-04-09,582,75,168,177,264,870,129,1467,72,98,104,205,266,137,246,41,62,93,7,61,179,81,65,46,17,44,61,68,16,25,61,19
2020-04-10,630,80,176,192,272,958,150,1614,81,107,116,216,288,141,279,46,64,95,7,63,188,86,67,48,17,47,68,71,16,25,62,20
2020-04-11,664,85,181,211,286,1034,158,1725,85,121,128,223,305,147,302,52,66,99,8,66,195,91,68,49,19,48,71,73,17,27,65,25
2020-04-12,708,97,186,238,290,1119,173,1839,94,130,137,229,327,154,324,54,70,100,10,67,200,94,70,51,20,48,76,77,17,31,65,27
2020-04-13,789,114,196,268,311,1273,193,2105,107,144,152,244,349,172,370,59,79,104,10,75,214,110,77,56,20,53,83,89,17,35,66,29
2020-04-14,892,121,200,315,325,1432,211,2351,126,157,163,260,367,190,418,66,89,108,10,83,231,116,79,60,21,58,92,105,17,37,67,33
2020-04-15,992,125,211,353,349,1607,217,2576,142,187,179,276,388,216,466,70,99,121,11,85,236,129,90,67,27,64,96,114,19,39,69,36
2020-04-16,1077,136,219,397,368,1788,229,2822,170,226,203,280,420,228,506,77,107,135,13,91,245,137,96,72,30,67,101,122,21,42,71,40
2020-04-17,1172,149,233,454,397,1943,238,3149,201,261,219,289,455,243,544,83,118,163,15,96,251,147,111,80,32,77,109,136,21,46,78,43
2020-04-18,1218,157,240,502,420,2103,244,3347,215,279,234,296,496,249,574,87,127,173,16,98,255,161,123,86,39,81,115,143,23,49,79,49
2020-04-19,1259,163,243,543,437,2256,246,3530,223,297,249,305,519,255,606,97,144,183,17,100,263,168,126,89,40,88,129,151,33,51,79,51
2020-04-20,1367,179,252,616,465,2511,257,3969,248,332,280,314,562,281,668,105,171,197,18,106,270,175,143,95,49,97,145,179,37,52,80,56
2020-04-21,1469,186,268,699,486,2781,274,4398,266,377,305,333,603,301,714,115,188,207,19,108,282,189,156,99,51,106,155,191,41,56,83,63
2020-04-22,1558,199,293,763,512,3025,289,4796,294,407,335,347,637,323,762,122,217,220,20,115,286,206,166,109,53,117,171,203,43,60,86,69
2020-04-23,1666,218,312,826,541,3283,295,5137,327,458,382,357,684,357,831,134,245,229,23,124,295,212,186,117,61,132,190,222,45,66,91,76
2020-04-24,1751,241,344,889,578,3585,302,5639,352,506,418,371,707,390,905,149,273,241,25,134,308,231,197,132,66,145,207,244,47,70,95,81
2020-04-25,1794,253,353,930,617,3777,307,5881,390,551,442,374,737,414,950,170,286,252,26,134,313,240,198,139,70,154,230,271,52,73,102,87
2020-04-26,1858,270,362,970,640,3977,316,6102,424,580,463,377,769,434,988,183,312,259,26,136,320,255,205,152,73,166,247,291,59,79,105,95
2020-04-27,1965,294,384,1028,671,4310,336,6577,448,648,510,401,813,471,1062,198,357,285,28,139,330,287,220,161,77,186,271,323,64,90,120,99
2020-04-28,2059,319,398,1086,713,4637,364,7106,488,723,558,417,853,513,1111,223,382,302,28,147,334,302,247,178,87,195,295,352,67,103,137,105
2020-04-29,2163,350,418,1136,756,4948,387,7664,522,797,610,430,890,545,1168,231,421,316,28,158,338,320,264,190,96,213,318,375,75,108,146,113
2020-04-30,2246,368,444,1219,799,5239,415,8175,540,859,664,451,923,605,1229,246,453,332,31,164,352,347,289,202,100,227,349,401,77,121,156,120
2020-05-01,2332,381,459,1269,831,5496,441,8489,569,925,699,466,953,631,1283,255,479,346,32,172,353,369,293,216,107,245,374,425,83,128,170,126
2020-05-02,2396,419,485,1314,872,5720,463,8807,596,989,737,470,1021,658,1334,271,504,355,32,184,362,400,297,222,114,255,395,441,89,143,184,137
2020-05-03,2481,445,501,1360,899,5947,473,9089,620,1047,755,475,1051,688,1363,277,546,366,34,188,369,426,300,236,116,269,423,468,96,158,195,149
2020-05-04,2616,496,527,1444,947,6416,514,9782,658,1142,796,501,1083,736,1436,301,588,399,36,196,376,487,348,258,121,300,456,510,99,173,224,167
2020-05-05,2742,524,547,1515,976,6737,577,10350,689,1244,847,532,1106,780,1485,317,626,421,41,207,388,539,358,290,126,327,484,530,102,197,241,176
2020-05-06,2844,570,572,1611,1016,7050,603,11017,730,1348,887,568,1146,813,1567,340,675,450,42,216,398,578,373,311,136,362,523,565,107,214,275,191
2020-05-07,2955,606,621,1716,1072,7458,625,11680,771,1464,912,592,1184,850,1628,357,722,485,43,229,409,616,396,334,145,397,559,594,118,229,288,202
2020-05-08,3084,644,647,1797,1114,7866,653,12415,799,1565,946,609,1210,885,1686,377,751,527,45,255,417,671,409,352,154,432,591,638,128,235,314,216
2020-05-09,3154,677,675,1850,1157,8089,681,12769,826,1644,969,618,1228,902,1735,397,771,553,48,281,423,714,409,368,158,454,614,682,130,242,327,229
2020-05-10,3223,710,696,1914,1189,8290,702,13081,846,1712,992,632,1250,928,1774,412,795,573,49,299,432,742,413,395,160,475,637,706,131,251,346,236
2020-05-11,3347,754,745,2025,1258,8802,748,13796,880,1851,1043,658,1293,971,1840,447,835,611,51,348,438,803,425,446,169,510,682,775,137,271,377,260
2020-05-12,3455,812,780,2112,1320,9241,785,14517,916,1971,1070,686,1331,1023,1920,485,886,661,57,382,453,860,468,513,172,555,734,835,149,290,400,280
2020-05-13,3568,857,809,2227,1402,9707,852,15281,955,2099,1113,698,1359,1082,1996,523,932,704,61,410,459,954,481,579,180,622,778,936,159,305,423,296
2020-05-14,3670,923,861,2353,1489,10106,888,15945,986,2259,1152,721,1399,1139,2092,544,961,756,73,451,467,1012,503,640,193,691,842,1013,165,322,457,307
2020-05-15,3785,980,923,2498,1577,10555,959,16734,1039,2407,1178,739,1420,1178,2182,579,996,794,77,500,472,1101,530,708,201,771,919,1115,178,339,486,320
2020-05-16,3844,1029,939,2583,1640,10790,987,17168,1084,2528,1210,746,1438,1209,2242,608,1007,825,80,527,483,1150,533,770,203,810,968,1159,179,342,511,334
2020-05-17,3905,1069,970,2661,1702,11033,995,17477,1100,2605,1230,759,1450,1258,2300,632,1023,843,84,545,486,1208,540,783,206,845,993,1184,187,347,526,350
2020-05-18,4068,1190,1020,2777,1818,11541,1036,18350,1149,2751,1272,794,1495,1312,2435,673,1060,897,91,593,497,1336,575,896,211,936,1071,1249,195,365,560,366
2020-05-19,4192,1288,1090,2880,1939,11939,1074,19202,1185,2888,1307,828,1531,1362,2533,720,1104,965,98,648,511,1426,594,960,211,999,1138,1315,202,388,584,386
2020-05-20,4322,1419,1145,3029,2053,12346,1135,20017,1242,3033,1336,863,1572,1419,2644,758,1138,1021,106,690,527,1510,618,1026,226,1073,1207,1412,218,405,622,410
2020-05-21,4447,1530,1199,3159,2175,12811,1165,20780,1298,3175,1361,907,1611,1485,2755,805,1180,1082,109,721,534,1582,647,1098,232,1175,1298,1491,235,424,659,425
2020-05-22,4599,1578,1263,3290,2303,13196,1208,21451,1330,3303,1390,940,1653,1541,2873,846,1220,1133,116,754,545,1635,671,1136,241,1267,1369,1582,255,450,712,447
2020-05-23,4652,1580,1298,3374,2395,13303,1234,21733,1352,3356,1396,953,1690,1569,2917,873,1235,1178,120,768,548,1648,687,1149,250,1312,1410,1601,256,461,732,462
2020-05-24,4699,1580,1320,3442,2443,13397,1257,21897,1381,3402,1398,963,1713,1591,2969,888,1246,1191,126,774,555,1649,693,1161,256,1348,1446,1628,268,468,749,476
2020-05-25,4756,1583,1383,3582,2561,13581,1283,22422,1436,3465,1399,978,1761,1630,3012,935,1278,1269,132,796,566,1650,731,1180,265,1445,1488,1697,286,481,792,502
2020-05-26,4773,1584,1427,3672,2641,13663,1316,22650,1441,3468,1399,979,1774,1658,3014,947,1302,1318,135,810,567,1650,760,1185,270,1471,1524,1707,296,502,815,522
2020-05-27,4776,1584,1432,3672,2662,13675,1324,22694,1441,3469,1399,979,1776,1661,3014,947,1302,1320,135,812,568,1650,769,1186,272,1471,1544,1708,304,502,815,522
2020-05-28,4777,1584,1432,3672,2662,13679,1324,22698,1441,3470,1400,980,1776,1661,3014,947,1302,1320,135,812,568,1650,769,1186,272,1471,1544,1710,304,503,815,522
