date,01,02,03,04,05,06,07,08,09,10,11,12,13,14,15,16,17,18,19,20,21,22,23,24,25,26,27,28,29,30,31,32
2020-01-01,0,0,0,0,0,0,0,0,0,0,0,0,0,0,0,0,0,0,0,0,0,0,0,0,0,0,0,0,0,0,0,0
2020-01-02,0,0,0,0,0,0,0,0,0,0,0,0,0,0,0,0,0,0,0,0,0,0,0,0,0,0,0,0,0,0,0,0
2020-01-03,0,0,0,0,0,0,0,0,0,0,0,0,0,0,0,0,0,0,0,0,0,0,0,0,0,0,0,0,0,0,0,0
2020-01-04,0,0,0,0,0,0,0,0,0,0,0,0,0,0,0,0,0,0,0,0,0,0,0,0,0,0,0,0,0,0,0,0
2020-01-05,0,0,0,0,0,0,0,0,0,0,0,0,0,0,0,0,0,0,0,0,0,0,0,0,0,0,0,0,0,0,0,0
2020-01-06,0,0,0,0,0,0,0,0,0,0,0,0,0,0,0,0,0,0,0,0,0,0,0,0,0,0,0,0,0,0,0,0
2020-01-07,0,0,0,0,0,0,0,0,0,0,0,0,0,0,0,0,0,0,0,0,0,0,0,0,0,0,0,0,0,0,0,0
2020-01-08,0,0,0,0,0,0,0,0,0,0,0,0,0,0,0,0,0,0,0,0,0,0,0,0,0,0,1,0,0,0,0,0
2020-01-09,0,0,0,0,0,0,0,0,0,0,0,0,0,0,0,0,0,0,0,0,0,0,0,0,0,0,0,0,0,0,0,0
2020-01-10,0,0,0,0,0,0,0,0,0,0,0,0,0,0,0,0,0,0,0,0,0,0,0,0,0,0,0,0,0,0,0,0
2020-01-11,0,0,0,0,0,0,0,0,0,0,0,0,0,0,0,0,0,0,0,0,0,0,0,0,0,0,0,0,0,0,0,0
2020-01-12,0,0,0,0,0,0,0,0,0,0,0,0,0,0,0,0,0,0,0,0,0,0,0,0,0,0,0,0,0,0,0,0
2020-01-13,0,0,0,0,0,0,0,0,0,0,0,0,0,0,0,0,0,0,0,0,0,0,0,0,0,0,0,0,0,0,0,0
2020-01-14,1,0,0,0,0,0,0,0,0,0,0,0,0,0,0,0,0,0,0,0,0,0,0,0,0,0,0,0,0,0,0,0
2020-01-15,0,0,0,0,0,0,0,0,0,0,0,0,0,0,0,0,0,0,0,0,0,0,0,0,0,0,0,0,0,0,0,0
2020-01-16,0,0,0,0,0,0,0,0,0,0,0,0,0,0,0,0,0,0,0,0,0,0,0,0,0,0,0,0,0,0,0,0
2020-01-17,0,0,0,0,0,0,0,0,0,0,0,0,0,0,0,0,0,0,0,0,0,0,0,0,0,0,0,0,0,0,0,0
2020-01-18,0,0,0,0,0,0,0,0,0,0,0,0,0,0,0,0,0,0,0,0,0,0,0,0,0,0,0,0,0,0,0,0
2020-01-19,0,0,0,0,0,0,0,0,0,0,0,0,0,0,0,0,0,0,0,0,0,0,0,0,0,0,0,0,0,0,0,0
2020-01-20,0,0,0,0,0,0,0,0,0,0,0,0,0,0,0,0,0,0,0,0,0,0,0,0,0,0,0,0,0,0,0,0
2020-01-21,0,0,0,0,0,0,0,0,0,0,0,0,0,0,0,0,0,0,0,0,0,0,0,0,0,0,0,0,0,0,0,0
2020-01-22,0,0,0,0,0,0,0,0,0,0,0,0,0,0,0,0,0,0,0,0,0,0,0,0,0,0,0,0,0,0,0,0
2020-01-23,0,0,0,0,0,0,0,0,0,0,0,0,0,0,0,0,0,0,0,0,0,0,0,0,0,0,0,0,0,0,0,0
2020-01-24,0,0,0,0,0,0,0,0,0,0,0,0,0,0,0,0,0,0,0,0,0,0,0,0,0,0,0,0,0,0,0,0
2020-01-25,0,0,0,0,0,0,0,0,0,0,0,0,0,0,0,0,0,0,0,0,0,0,0,0,0,0,0,0,0,0,0,0
2020-01-26,0,0,0,0,0,0,0,0,0,0,0,0,0,0,0,0,0,0,0,0,0,0,0,0,0,0,0,0,0,0,0,0
2020-01-27,0,0,0,0,0,0,0,0,0,0,0,0,0,0,0,0,0,0,0,0,0,0,0,0,0,0,0,0,0,0,0,0
2020-01-28,0,0,0,0,1,0,0,0,0,0,0,0,0,0,0,0,0,0,0,0,0,0,0,0,0,0,0,0,0,0,0,0
2020-01-29,0,0,0,0,0,0,0,0,0,0,0,0,0,0,0,0,0,0,0,0,0,0,0,0,0,0,0,0,0,0,0,0
2020-01-30,0,0,0,0,0,0,0,0,0,0,0,0,0,0,0,0,0,0,0,0,0,0,0,0,0,0,0,0,0,0,0,0
2020-01-31,0,0,0,0,0,0,0,0,1,0,0,0,0,0,0,0,0,0,0,0,0,0,0,0,0,0,0,0,0,0,0,0
2020-02-01,0,0,0,0,0,0,0,0,0,0,0,0,0,0,0,0,0,0,0,0,0,0,0,0,0,0,0,0,0,0,0,0
2020-02-02,0,0,0,0,0,0,0,0,0,0,0,0,0,0,0,0,0,0,0,0,0,0,0,0,0,0,0,0,0,0,0,0
2020-02-03,0,0,0,0,0,0,0,0,0,0,0,0,0,0,0,0,0,0,0,0,0,0,0,0,0,0,0,0,0,0,0,0
2020-02-04,0,0,0,0,0,0,0,0,0,0,0,0,0,0,0,0,0,0,0,0,0,0,0,0,0,0,0,0,0,0,0,0
2020-02-05,0,0,0,0,0,0,0,0,0,0,0,0,0,0,0,0,0,0,0,0,0,0,0,0,0,0,0,0,0,0,0,0
2020-02-06,0,0,0,0,0,0,0,0,0,0,0,0,0,0,0,0,0,0,0,0,0,0,0,0,0,0,0,0,0,0,0,0
2020-02-07,0,0,0,0,0,0,0,0,0,0,1,0,0,0,0,0,0,0,0,0,0,0,0,0,0,0,0,0,0,0,0,0
2020-02-08,0,0,0,0,0,0,0,0,0,0,0,0,0,0,0,0,0,0,0,0,0,0,0,0,0,0,0,0,0,0,0,0
2020-02-09,0,0,0,0,0,0,0,0,0,0,0,0,0,0,0,0,0,0,0,0,0,0,0,0,0,0,0,0,0,0,0,0
2020-02-10,0,0,0,0,0,0,0,0,0,0,0,0,0,0,0,0,0,0,0,0,0,0,0,0,0,0,0,0,0,0,0,0
2020-02-11,0,0,0,0,0,0,0,0,0,0,0,0,0,0,0,0,0,0,0,0,0,0,0,0,0,0,0,0,0,0,0,0
2020-02-12,0,0,0,0,0,0,0,0,0,0,0,0,0,0,0,0,0,0,0,0,0,0,0,0,0,0,0,0,0,0,0,0
2020-02-13,0,0,0,0,0,0,0,0,0,0,0,0,0,0,0,0,0,0,0,0,0,0,0,0,0,0,0,0,0,0,0,0
2020-02-14,0,0,0,0,0,0,0,0,0,0,0,0,0,0,0,0,0,0,0,0,0,0,0,0,0,0,0,0,0,0,0,0
2020-02-15,0,0,0,0,0,0,0,0,0,0,0,0,0,0,0,0,0,0,0,0,0,0,0,0,0,0,0,0,0,0,0,0
2020-02-16,0,0,0,0,0,0,0,0,0,0,0,0,0,0,0,0,0,0,0,0,0,0,0,0,0,0,0,0,0,0,0,0
2020-02-17,0,0,0,0,0,0,0,0,0,0,0,0,0,0,0,0,0,0,0,0,0,0,0,0,0,0,0,0,0,0,0,0
2020-02-18,0,0,0,0,0,0,0,0,1,0,0,0,0,0,0,0,0,0,0,0,0,0,0,0,0,0,0,0,0,0,0,0
2020-02-19,0,0,0,0,0,0,0,0,0,0,0,0,0,0,0,0,0,0,0,0,0,0,0,0,0,0,0,0,0,0,0,0
2020-02-20,0,0,0,0,0,0,0,0,0,0,0,0,0,0,0,0,0,0,0,0,0,0,0,0,0,0,0,0,0,0,0,0
2020-02-21,0,0,0,0,0,0,0,0,0,0,0,0,0,0,0,0,0,0,0,0,0,0,0,0,0,0,0,0,0,0,0,0
2020-02-22,0,0,0,0,0,0,0,0,0,0,0,0,0,0,0,0,0,0,0,0,0,0,0,0,0,0,0,0,0,0,0,0
2020-02-23,0,0,0,0,0,0,0,0,0,0,0,0,0,0,0,0,0,0,0,0,0,0,0,0,0,0,0,0,0,0,0,0
2020-02-24,0,0,0,0,0,0,0,0,0,0,0,0,0,0,0,0,0,0,0,0,0,0,0,0,0,0,0,0,0,0,0,0
2020-02-25,0,0,0,0,0,0,0,0,0,0,0,0,0,0,0,0,0,0,0,0,0,0,0,0,0,0,0,0,0,0,0,0
2020-02-26,0,0,0,0,0,0,0,0,0,0,0,0,0,0,0,0,0,0,0,0,0,0,0,0,0,0,0,0,0,0,0,0
2020-02-27,0,0,0,0,0,0,0,0,3,0,0,0,1,0,0,0,0,0,0,0,0,0,0,0,0,0,0,0,0,0,0,0
2020-02-28,0,0,0,0,1,0,0,0,0,0,0,0,0,0,1,0,0,0,0,0,0,0,0,0,0,0,0,0,0,0,0,0
2020-02-29,0,0,0,0,0,0,1,0,0,0,0,0,0,0,0,0,0,0,0,0,0,0,0,0,0,0,0,0,0,0,0,0
2020-03-01,0,0,0,0,0,0,0,0,0,0,0,0,0,0,0,0,0,0,0,0,0,0,0,0,0,0,0,0,0,0,0,0
2020-03-02,0,0,0,0,0,0,0,0,1,0,0,0,0,0,1,0,0,0,0,0,0,0,0,0,0,0,0,0,0,0,0,0
2020-03-03,0,0,0,0,0,0,0,0,0,0,0,0,0,0,0,0,0,0,0,0,0,0,0,0,0,0,0,0,0,0,0,0
2020-03-04,0,0,0,0,0,0,0,0,0,0,0,0,0,0,2,0,0,0,0,0,0,0,0,0,0,0,0,0,0,0,0,0
2020-03-05,0,0,0,0,0,0,0,0,1,0,0,0,0,0,0,0,0,0,0,0,0,0,0,0,0,0,0,0,0,0,0,0
2020-03-06,0,0,0,0,0,0,0,0,0,0,0,0,0,0,0,0,0,0,0,0,0,0,0,0,0,0,0,0,0,0,0,0
2020-03-07,0,0,0,0,0,0,0,0,1,0,0,0,0,0,0,0,0,0,0,0,0,0,0,0,0,0,0,0,0,0,0,0
2020-03-08,0,0,0,1,0,0,0,0,1,0,0,0,0,0,2,0,0,0,0,0,0,0,0,0,0,0,0,0,0,0,0,0
2020-03-09,0,0,0,0,0,0,0,0,0,0,0,0,0,0,1,0,1,0,0,0,0,0,0,0,0,0,0,0,0,0,0,0
2020-03-10,0,0,0,0,0,0,0,0,3,0,0,0,0,0,2,0,0,0,2,0,0,2,0,0,0,0,0,0,0,0,0,0
2020-03-11,0,1,0,0,2,0,0,0,12,1,0,0,0,1,2,0,0,0,4,0,1,1,2,0,0,0,0,0,0,0,0,0
2020-03-12,0,0,0,1,0,0,0,0,17,0,0,0,0,3,3,0,0,0,0,0,1,1,1,0,0,0,0,0,0,0,1,0
2020-03-13,0,0,0,0,0,0,0,1,24,1,1,2,0,3,12,0,0,0,5,2,4,2,0,2,1,0,0,0,0,0,0,0
2020-03-14,1,0,0,1,0,1,0,1,21,1,0,0,0,5,4,0,1,0,6,0,2,1,4,0,0,0,0,0,0,0,0,0
2020-03-15,0,0,0,0,0,0,0,0,10,0,2,0,1,2,10,0,0,0,0,0,3,0,0,0,0,1,0,1,0,2,4,0
2020-03-16,0,1,0,0,1,1,0,0,26,0,2,2,0,12,6,0,0,0,6,0,2,0,3,1,1,0,0,1,0,0,2,1
2020-03-17,1,3,0,0,2,0,0,0,34,1,0,5,2,6,7,0,1,0,6,0,3,2,4,5,1,1,1,0,0,0,6,0
2020-03-18,3,4,1,0,2,0,1,1,31,1,1,1,0,17,6,1,1,1,9,0,3,2,2,1,0,0,2,0,0,7,0,0
2020-03-19,1,5,0,0,3,0,0,1,39,0,1,0,0,10,12,1,0,1,4,1,5,3,5,3,2,0,2,1,0,5,2,0
2020-03-20,2,6,1,0,4,0,0,3,24,0,4,0,3,5,10,2,1,0,12,1,5,0,1,3,1,1,2,1,0,1,6,1
2020-03-21,1,3,1,0,0,0,0,1,12,1,11,1,3,1,5,5,1,0,4,1,4,1,3,4,0,1,0,0,0,1,0,1
2020-03-22,1,2,0,0,0,0,0,1,11,0,1,0,0,3,5,0,0,0,4,1,2,0,4,1,1,0,0,2,0,0,8,1
2020-03-23,4,10,4,1,1,0,3,0,25,1,6,1,1,8,14,3,2,2,5,2,8,3,4,2,2,3,3,1,1,4,5,0
2020-03-24,0,9,2,0,5,1,0,1,34,1,1,0,1,7,23,3,3,3,5,1,15,4,9,0,6,4,12,1,2,2,8,1
2020-03-25,17,7,0,0,0,0,2,2,25,1,4,3,5,7,24,2,0,0,0,3,6,2,11,0,8,3,3,0,0,2,3,0
2020-03-26,3,11,2,1,3,0,0,2,51,0,6,4,4,6,26,3,0,0,2,3,14,1,9,1,9,1,5,0,0,5,0,0
2020-03-27,6,16,4,3,4,0,5,2,38,0,5,3,4,7,43,1,0,0,8,1,9,3,7,6,9,5,11,1,1,1,2,4
2020-03-28,5,7,4,0,4,0,1,2,48,0,4,3,0,2,27,1,3,0,2,1,13,0,7,0,5,4,1,3,2,1,4,1
2020-03-29,3,21,1,1,7,0,0,5,35,0,1,1,2,2,18,3,1,0,3,2,4,1,3,6,6,0,9,3,0,1,2,0
2020-03-30,4,29,13,0,19,1,1,3,76,2,4,3,7,7,50,0,1,0,4,2,14,1,21,3,11,1,10,4,1,3,10,0
2020-03-31,1,45,7,0,14,1,2,5,50,2,2,4,7,7,33,4,1,2,0,6,21,4,14,2,15,5,11,5,0,2,4,0
2020-04-01,0,65,5,0,17,2,4,7,55,1,1,3,5,2,49,4,3,0,0,1,13,3,23,0,14,1,9,8,4,9,8,0
2020-04-02,0,29,11,2,18,0,2,6,71,0,2,1,1,8,48,0,8,0,5,0,18,1,11,0,28,3,15,1,1,6,2,1
2020-04-03,2,38,16,1,22,0,5,5,79,0,5,1,3,10,47,6,1,1,2,3,14,4,13,0,10,1,20,9,0,8,8,0
2020-04-04,0,24,6,0,11,0,1,8,56,0,3,2,2,2,35,2,3,4,3,2,10,1,9,3,11,7,3,3,2,2,2,1
2020-04-05,3,20,5,3,4,0,1,12,50,0,3,3,1,2,39,2,3,2,2,2,6,0,10,1,15,2,9,4,6,2,5,1
2020-04-06,4,66,23,2,26,0,5,10,116,1,7,8,3,3,81,6,8,2,10,6,22,4,32,3,27,11,7,10,8,6,12,1
2020-04-07,1,37,24,0,8,0,2,7,124,0,6,11,3,6,71,6,7,2,7,0,12,4,20,5,20,10,13,5,7,11,13,0
2020-04-08,1,59,24,0,18,0,5,10,122,0,8,6,1,9,88,4,6,2,9,4,20,3,26,2,29,11,17,3,6,5,9,2
2020-04-09,0,58,25,2,7,0,3,6,127,1,2,7,0,5,57,9,7,2,1,0,11,3,8,4,12,5,11,5,1,12,11,2
2020-04-10,2,47,9,1,11,0,3,12,146,0,2,5,7,8,84,3,2,0,21,2,8,2,22,1,33,5,14,9,5,9,4,0
2020-04-11,1,33,7,5,7,1,1,11,108,1,4,5,3,5,75,2,2,2,8,1,14,3,17,2,23,5,19,4,6,14,6,2
2020-04-12,2,42,5,2,6,2,0,9,112,0,1,12,5,5,83,4,4,4,15,2,4,1,22,0,22,3,27,9,2,9,7,1
2020-04-13,6,81,14,2,16,0,5,15,236,0,3,17,7,10,149,12,9,4,20,5,21,8,22,1,46,16,29,13,5,14,17,0
2020-04-14,2,101,17,4,16,0,5,11,237,0,3,7,8,4,157,16,10,2,18,4,14,7,18,1,48,6,48,19,7,13,18,1
2020-04-15,11,97,5,3,16,1,6,16,220,2,13,5,4,11,176,9,10,2,6,7,24,3,21,2,48,13,36,16,4,30,25,6
2020-04-16,6,79,9,4,3,2,3,21,238,2,14,11,4,8,180,8,8,3,12,4,20,6,32,2,40,6,43,28,7,39,12,3
2020-04-17,15,89,6,3,9,2,10,15,319,0,28,13,9,14,152,13,11,4,10,8,29,5,35,7,38,10,56,31,6,34,15,2
2020-04-18,12,40,4,6,7,1,4,10,193,2,10,9,6,7,156,7,9,3,6,5,24,2,40,1,30,13,48,13,4,18,5,7
2020-04-19,3,37,8,2,9,1,7,14,176,10,10,6,13,3,148,8,13,2,1,3,16,2,23,0,33,7,40,8,10,18,6,1
2020-04-20,15,100,7,5,9,1,9,31,423,4,14,15,13,9,250,28,29,1,11,7,28,6,44,1,62,7,73,26,8,36,25,9
2020-04-21,13,88,12,7,19,1,9,24,420,4,10,7,10,16,264,12,21,4,17,3,20,2,41,1,47,15,83,18,10,45,19,2
2020-04-22,11,75,5,6,14,1,11,30,385,2,13,13,16,25,239,12,33,4,15,10,27,6,33,1,48,18,62,28,7,29,20,2
2020-04-23,20,106,7,7,9,3,14,40,337,2,9,18,19,19,247,19,28,6,6,8,30,9,46,4,69,6,65,33,12,51,32,8
2020-04-24,11,86,13,5,14,2,12,35,487,2,12,23,16,32,294,22,35,4,7,11,37,9,23,4,73,19,63,26,14,48,33,5
2020-04-25,1,45,5,6,3,1,8,20,230,5,11,12,18,9,191,27,16,3,5,7,38,0,30,7,45,9,41,38,21,43,24,4
2020-04-26,7,61,6,8,4,0,11,19,196,7,7,16,17,9,194,19,35,5,7,9,22,2,32,3,38,15,40,34,12,28,20,3
2020-04-27,15,102,10,4,24,2,20,43,463,5,26,25,24,21,339,31,51,11,20,7,32,3,43,15,74,33,58,24,15,67,37,4
2020-04-28,26,91,4,6,16,0,9,41,505,3,17,26,21,15,319,29,29,13,25,12,43,9,40,16,48,15,57,39,25,73,42,10
2020-04-29,17,100,4,8,13,0,18,49,527,8,14,31,24,18,303,23,56,7,25,10,47,10,35,9,57,18,49,35,8,72,32,9
2020-04-30,23,78,14,7,20,3,14,50,479,2,16,18,32,26,264,26,45,13,27,6,45,6,25,10,59,25,82,18,15,57,59,4
2020-05-01,4,84,1,6,14,1,17,33,257,6,14,11,25,16,223,22,36,7,27,9,35,8,29,14,50,19,49,27,9,58,26,7
2020-05-02,2,54,8,11,5,0,10,32,256,6,9,38,20,26,162,16,28,14,23,3,42,11,20,12,49,29,45,19,15,63,26,7
2020-05-03,2,63,6,12,5,2,13,18,246,7,11,26,28,16,164,25,51,15,10,10,29,4,23,11,29,21,46,24,6,55,27,2
2020-05-04,45,125,7,17,26,2,31,33,607,3,33,52,33,26,337,42,51,16,37,19,46,9,23,28,64,58,80,37,24,89,47,5
2020-05-05,9,113,12,9,30,5,26,34,446,3,21,26,26,18,226,18,51,24,63,14,30,11,23,17,47,50,70,30,16,100,43,5
2020-05-06,15,91,10,15,34,1,33,25,458,4,27,42,40,25,200,33,53,16,24,14,35,9,38,33,78,35,93,39,23,94,33,11
2020-05-07,20,80,10,11,21,1,32,16,354,11,36,35,37,48,246,27,48,16,22,20,51,12,37,13,56,32,102,38,17,110,37,9
2020-05-08,13,93,6,12,12,2,33,19,425,10,41,35,30,25,224,35,35,5,24,12,36,25,25,25,51,46,80,27,19,86,33,9
2020-05-09,0,39,6,12,7,2,22,11,203,2,26,31,23,26,104,44,23,6,25,8,37,23,17,12,47,41,51,18,20,65,15,4
2020-05-10,4,35,5,6,13,1,16,7,182,1,18,28,19,16,84,17,22,7,22,10,24,16,22,18,28,20,56,19,13,52,23,2
2020-05-11,12,68,3,19,21,2,26,21,468,6,37,29,41,42,228,55,51,16,43,25,48,43,43,28,49,35,106,28,34,45,42,8
2020-05-12,26,25,12,17,5,5,31,3,377,8,40,21,47,23,148,28,27,12,18,23,43,20,32,20,36,21,70,26,35,32,46,3
2020-05-13,6,16,1,10,1,2,19,4,249,5,13,0,30,13,89,8,23,12,23,26,45,9,14,19,5,5,88,13,28,6,30,7
2020-05-14,0,0,2,3,0,1,1,0,34,1,1,0,13,5,5,0,3,0,2,0,28,3,1,3,0,0,31,4,4,0,2,1
2020-05-15,1,0,0,0,1,0,0,0,2,0,0,0,0,0,2,0,0,0,1,0,1,0,0,0,0,0,0,0,1,0,0,0
