date,15,09,02,27,31,25,30,21,23,19,05,11,13,14,12,08,10,20,28,01,26,17,22,18,16,29,07,32,06,04,03,24
2020-01-01,0,0,0,0,0,0,0,0,0,0,0,0,0,0,0,0,0,0,0,0,0,0,0,0,0,0,0,0,0,0,0,0
2020-01-02,0,0,0,0,0,0,0,0,0,0,0,0,0,0,0,0,0,0,0,0,0,0,0,0,0,0,0,0,0,0,0,0
2020-01-03,0,0,0,0,0,0,0,0,0,0,0,0,0,0,0,0,0,0,0,0,0,0,0,0,0,0,0,0,0,0,0,0
2020-01-04,0,0,0,0,0,0,0,0,0,0,0,0,0,0,0,0,0,0,0,0,0,0,0,0,0,0,0,0,0,0,0,0
2020-01-05,0,0,0,0,0,0,0,0,0,0,0,0,0,0,0,0,0,0,0,0,0,0,0,0,0,0,0,0,0,0,0,0
2020-01-06,0,0,0,0,0,0,0,0,0,0,0,0,0,0,0,0,0,0,0,0,0,0,0,0,0,0,0,0,0,0,0,0
2020-01-07,0,0,0,0,0,0,0,0,0,0,0,0,0,0,0,0,0,0,0,0,0,0,0,0,0,0,0,0,0,0,0,0
2020-01-08,0,0,0,0,0,0,0,0,0,0,0,0,0,0,0,0,0,0,0,0,0,0,0,0,0,0,0,0,0,0,0,0
2020-01-09,0,0,0,0,0,0,0,0,0,0,0,0,0,0,0,0,0,0,0,0,0,0,0,0,0,0,0,0,0,0,0,0
2020-01-10,0,0,0,0,0,0,0,0,0,0,0,0,0,0,0,0,0,0,0,0,0,0,0,0,0,0,0,0,0,0,0,0
2020-01-11,0,0,0,0,0,0,0,0,0,0,0,0,0,0,0,0,0,0,0,0,0,0,0,0,0,0,0,0,0,0,0,0
2020-01-12,0,0,0,0,0,0,0,0,0,0,0,0,0,0,0,0,0,0,0,0,0,0,0,0,0,0,0,0,0,0,0,0
2020-01-13,0,0,0,0,0,0,0,0,0,1,0,0,0,0,0,0,0,0,0,0,0,0,0,0,0,0,0,0,0,0,0,0
2020-01-14,0,0,0,0,0,0,0,0,0,1,0,0,0,0,0,0,0,0,0,1,0,0,0,0,0,0,0,0,0,0,0,0
2020-01-15,0,0,0,0,0,0,0,0,0,1,0,0,0,0,0,0,0,0,0,1,0,0,0,0,0,0,0,0,0,0,0,0
2020-01-16,0,0,0,0,0,0,0,0,0,1,0,0,0,0,0,0,0,0,0,1,0,0,0,0,0,0,0,0,0,0,0,0
2020-01-17,0,0,0,0,0,0,0,0,0,1,0,0,0,0,0,0,0,0,0,1,0,0,0,0,0,0,0,0,0,0,0,0
2020-01-18,0,0,0,0,0,0,0,0,0,1,0,0,0,0,0,0,0,0,0,1,0,0,0,0,0,0,0,0,0,0,0,0
2020-01-19,0,0,0,0,0,0,0,0,0,1,0,0,0,0,0,0,0,0,0,1,0,0,0,0,0,0,0,0,0,0,0,0
2020-01-20,0,0,0,0,0,0,0,0,0,1,0,0,0,0,0,0,0,0,0,1,0,0,0,0,0,0,0,0,0,0,0,0
2020-01-21,0,0,0,0,0,0,0,0,0,1,0,0,0,0,0,0,0,0,0,1,0,0,0,0,0,0,0,0,0,0,0,0
2020-01-22,0,0,0,0,0,0,0,0,0,1,0,0,0,0,0,0,0,0,0,1,0,0,0,0,0,0,0,0,0,0,0,0
2020-01-23,0,0,0,0,0,0,0,0,0,1,0,0,0,0,0,0,0,0,0,1,0,0,0,0,0,0,0,0,0,0,0,0
2020-01-24,0,0,0,0,0,0,0,0,0,1,0,0,0,0,0,0,0,0,0,1,0,0,0,0,0,0,0,0,0,0,0,0
2020-01-25,0,0,0,0,0,0,0,0,0,1,0,0,0,0,0,0,0,0,0,1,0,0,0,0,0,0,0,0,0,0,0,0
2020-01-26,0,0,0,0,0,0,0,0,0,1,0,0,0,0,0,0,0,0,0,1,0,0,0,0,0,0,0,0,0,0,0,0
2020-01-27,0,0,0,0,0,0,0,0,0,1,0,0,0,0,0,0,0,0,0,1,0,0,0,0,0,0,0,0,0,0,0,0
2020-01-28,0,0,0,0,0,0,0,0,0,1,1,0,0,0,0,0,0,0,0,1,0,0,0,0,0,0,0,0,0,0,0,0
2020-01-29,0,0,0,0,0,1,0,0,0,1,1,0,0,0,0,0,0,0,0,1,0,0,0,0,0,0,0,0,0,0,0,0
2020-01-30,0,0,0,0,0,1,0,0,0,1,1,0,0,0,0,0,0,0,0,1,0,0,0,0,0,0,0,0,0,0,0,0
2020-01-31,0,0,0,0,0,1,0,0,0,1,1,0,0,0,0,0,0,0,0,1,0,0,0,0,0,0,0,0,0,0,0,0
2020-02-01,0,0,0,0,0,1,0,0,0,1,1,0,0,0,0,0,0,0,0,1,0,0,0,0,0,0,0,0,0,0,0,0
2020-02-02,0,0,0,0,0,1,0,0,0,1,1,0,0,0,0,0,0,0,0,1,0,0,0,0,0,0,0,0,0,0,0,0
2020-02-03,0,0,0,0,0,1,0,0,0,1,1,0,0,0,0,0,0,0,0,1,0,0,0,0,0,0,0,0,0,0,0,0
2020-02-04,0,0,0,0,0,1,0,0,0,1,1,0,0,0,0,0,0,0,0,1,0,0,0,0,0,0,0,0,0,0,0,0
2020-02-05,0,0,0,0,0,1,0,0,0,1,1,0,0,0,0,0,0,0,0,1,0,0,0,0,0,0,0,0,0,0,0,0
2020-02-06,0,0,0,0,0,1,0,0,0,1,1,0,0,0,0,0,0,0,0,1,0,0,0,0,0,0,0,0,0,0,0,0
2020-02-07,0,0,0,0,0,1,0,0,0,1,1,0,0,0,0,0,0,0,0,1,0,0,0,0,0,0,0,0,0,0,0,0
2020-02-08,0,0,0,0,0,1,0,0,0,1,1,0,0,0,0,0,0,0,0,1,0,0,0,0,0,0,0,0,0,0,0,0
2020-02-09,0,0,0,0,0,1,0,0,0,1,1,0,0,0,0,0,0,0,0,1,0,0,0,0,0,0,0,0,0,0,0,0
2020-02-10,0,0,0,0,0,1,0,0,0,1,1,0,0,0,0,0,0,0,0,1,0,0,0,0,0,0,0,0,0,0,0,0
2020-02-11,0,0,0,0,0,1,0,0,0,1,1,0,0,0,0,0,0,0,0,1,0,0,0,0,0,0,0,0,0,0,0,0
2020-02-12,0,0,1,0,0,1,0,0,0,1,1,0,0,0,0,0,0,0,0,1,0,0,0,0,0,0,0,0,0,0,0,0
2020-02-13,0,0,1,0,0,1,0,0,0,1,1,0,0,0,0,0,0,0,0,1,0,0,0,0,0,0,0,0,0,0,0,0
2020-02-14,0,0,1,0,0,1,0,0,0,1,1,0,0,0,0,0,0,0,0,1,0,0,0,0,0,0,0,0,0,0,0,0
2020-02-15,0,0,1,0,0,1,0,0,0,1,1,0,0,0,0,0,0,0,0,1,0,0,0,0,0,0,0,0,0,0,0,0
2020-02-16,0,0,1,0,0,1,0,0,0,1,1,0,0,0,0,0,0,0,0,1,0,0,0,0,0,0,0,0,0,0,0,0
2020-02-17,0,0,1,0,0,1,0,0,0,1,1,0,0,0,0,0,0,0,0,1,0,0,0,0,0,0,0,0,0,0,0,0
2020-02-18,0,0,1,0,0,1,0,0,0,1,1,0,0,0,0,0,0,0,0,1,0,0,0,0,0,0,0,0,0,0,0,0
2020-02-19,0,0,1,0,0,1,0,0,0,1,1,0,0,0,0,0,0,0,0,1,0,0,0,0,0,0,0,0,0,0,0,0
2020-02-20,0,0,1,0,0,1,0,0,0,1,1,0,0,0,0,0,0,0,0,1,0,0,0,0,0,0,0,0,0,0,0,0
2020-02-21,0,0,1,0,0,1,0,0,0,1,1,0,0,0,0,0,0,0,0,1,0,0,0,0,0,0,0,0,0,0,0,0
2020-02-22,0,0,1,0,0,1,0,0,0,1,1,0,0,0,0,0,0,0,0,1,0,0,0,0,0,0,0,0,0,0,0,0
2020-02-23,0,0,1,0,0,1,0,0,0,1,1,0,0,0,0,0,0,0,0,1,0,0,0,0,0,0,0,0,0,0,0,0
2020-02-24,0,0,1,0,0,1,0,0,0,1,1,0,0,0,0,0,0,0,0,1,0,0,0,0,0,0,0,0,0,0,0,0
2020-02-25,0,0,1,0,0,1,0,0,0,1,1,0,0,0,0,0,0,0,0,1,0,0,0,0,0,0,0,0,0,0,0,0
2020-02-26,0,0,1,0,0,1,0,0,0,1,1,0,0,0,0,0,0,0,0,1,0,0,0,0,0,0,0,0,0,0,0,0
2020-02-27,0,3,1,0,0,1,0,0,0,1,1,0,1,0,0,0,0,0,0,1,0,0,0,0,0,0,0,0,0,0,0,0
2020-02-28,1,3,1,0,0,1,0,0,0,1,2,0,1,0,0,0,0,0,0,1,0,0,0,0,0,0,0,0,0,0,0,0
2020-02-29,1,3,1,0,0,1,0,0,0,1,2,0,1,0,0,0,0,0,0,1,0,0,0,0,0,0,1,0,0,0,0,0
2020-03-01,1,3,1,0,0,1,0,0,0,1,2,0,1,0,0,0,0,0,0,1,0,0,0,0,0,0,1,0,0,0,0,0
2020-03-02,2,4,1,0,0,1,0,0,0,1,2,0,1,0,0,0,0,0,0,1,0,0,0,0,0,0,1,0,0,0,0,0
2020-03-03,2,4,1,0,0,1,0,0,0,1,2,0,1,0,0,0,0,0,0,1,0,0,0,0,0,0,1,0,0,0,0,0
2020-03-04,4,4,1,0,0,1,0,0,0,1,2,0,1,0,0,0,0,0,0,1,0,0,0,0,0,0,1,0,0,0,0,0
2020-03-05,4,5,1,0,0,1,0,0,0,1,2,0,1,0,0,0,0,0,0,1,0,0,0,0,0,0,1,0,0,0,0,0
2020-03-06,4,5,1,0,0,1,0,0,0,1,2,0,1,0,0,0,0,0,0,1,0,0,0,0,0,0,1,0,0,0,0,0
2020-03-07,4,6,1,0,0,1,0,0,0,1,2,0,1,0,0,0,0,0,0,1,0,0,0,0,0,0,1,0,0,0,0,0
2020-03-08,6,7,1,0,0,1,0,0,0,1,2,0,1,0,0,0,0,0,0,1,0,0,0,0,0,0,1,0,0,1,0,0
2020-03-09,7,7,1,0,0,1,0,0,0,1,2,0,1,0,0,0,0,0,0,1,0,1,0,0,0,0,1,0,0,1,0,0
2020-03-10,9,10,1,0,0,1,0,0,0,3,2,0,1,0,0,0,0,0,0,1,0,1,2,0,0,0,1,0,0,1,0,0
2020-03-11,11,22,2,0,0,1,0,1,2,7,4,0,1,1,0,0,1,0,0,1,0,1,3,0,0,0,1,0,0,1,0,0
2020-03-12,14,39,2,0,1,1,0,2,3,7,4,0,1,4,0,0,1,0,0,1,0,1,4,0,0,0,1,0,0,2,0,0
2020-03-13,26,63,2,0,1,2,0,6,3,12,4,1,1,7,2,1,2,2,0,1,0,1,6,0,0,0,1,0,0,2,0,2
2020-03-14,30,84,2,0,1,2,0,8,7,18,4,1,1,12,2,2,3,2,0,2,0,2,7,0,0,0,1,0,1,3,0,2
2020-03-15,40,94,2,0,5,2,2,11,7,18,4,3,2,14,2,2,3,2,1,2,1,2,7,0,0,0,1,0,1,3,0,2
2020-03-16,46,120,3,0,7,3,2,13,10,24,5,5,2,26,4,2,3,2,2,2,1,2,7,0,0,0,1,1,2,3,0,3
2020-03-17,53,154,6,1,13,4,2,16,14,30,7,5,4,32,9,2,4,2,2,3,2,3,9,0,0,0,1,1,2,3,0,8
2020-03-18,59,185,10,4,13,4,9,19,16,39,9,6,4,49,10,3,5,2,2,6,2,4,11,1,1,0,2,1,2,3,1,9
2020-03-19,71,224,15,6,15,6,14,24,21,43,12,7,4,59,10,4,5,3,3,7,2,4,14,2,2,0,2,1,2,3,1,12
2020-03-20,81,248,21,8,21,7,15,29,22,55,16,11,7,64,10,7,5,4,4,9,3,5,14,2,4,0,2,2,2,3,2,15
2020-03-21,86,260,24,8,21,7,16,33,25,59,16,22,10,65,11,8,6,5,4,10,4,6,15,2,9,0,2,3,2,3,3,19
2020-03-22,91,271,26,8,29,8,16,35,29,63,16,23,10,68,11,9,6,6,6,11,4,6,15,2,9,0,2,4,2,3,3,20
2020-03-23,106,296,36,11,34,10,20,43,33,68,17,29,11,76,12,9,7,8,7,15,7,8,18,4,12,1,5,4,2,4,7,22
2020-03-24,129,330,45,23,42,16,22,58,42,73,23,30,12,83,12,10,8,9,8,15,11,11,22,7,15,2,5,5,3,4,9,22
2020-03-25,154,355,52,26,45,24,24,64,53,73,23,34,17,90,15,12,9,12,8,32,14,11,24,7,17,2,7,5,3,4,9,22
2020-03-26,182,406,63,31,45,33,29,78,62,74,26,40,21,96,19,14,9,15,8,35,15,11,25,7,20,2,7,5,3,5,11,23
2020-03-27,225,445,79,42,47,42,30,87,69,82,30,45,25,103,22,16,9,16,9,41,20,11,29,7,21,3,12,9,3,8,15,29
2020-03-28,252,494,86,43,51,47,31,100,76,84,34,49,25,105,25,18,9,17,12,46,24,14,31,8,22,5,13,10,3,8,19,29
2020-03-29,270,529,107,52,53,53,32,104,79,87,42,50,27,107,26,23,9,19,15,49,24,15,32,8,25,5,13,10,3,9,20,35
2020-03-30,320,606,136,62,63,64,36,118,100,91,60,54,34,114,28,26,11,21,19,53,25,16,33,8,25,6,15,10,4,9,33,38
2020-03-31,354,657,181,73,67,79,38,139,114,91,74,56,41,121,32,31,13,27,24,54,30,17,37,10,29,6,17,10,5,9,40,40
2020-04-01,403,712,247,82,75,93,48,152,137,91,91,57,46,123,35,38,14,28,32,54,31,20,40,10,33,10,21,10,7,9,45,40
2020-04-02,451,783,276,97,77,121,54,170,148,96,109,59,47,131,36,44,14,28,33,54,34,28,41,10,34,11,23,11,7,11,56,40
2020-04-03,500,862,314,117,85,131,62,183,161,98,131,64,50,141,37,49,14,31,42,56,35,29,45,11,40,11,28,11,7,12,72,40
2020-04-04,534,918,338,120,87,143,64,193,170,101,142,67,52,143,39,58,14,33,45,56,42,32,46,15,42,13,29,12,7,12,78,43
2020-04-05,574,972,358,129,92,158,66,199,180,102,146,70,54,145,42,70,14,35,49,59,44,35,46,17,44,19,30,13,7,15,83,45
2020-04-06,656,1089,426,136,104,185,72,221,212,112,172,77,57,148,50,80,15,40,59,63,55,43,50,19,50,27,35,14,7,17,106,48
2020-04-07,727,1216,466,149,117,205,83,233,232,119,180,83,60,154,61,87,15,40,64,64,65,49,55,21,56,34,37,14,7,17,130,54
2020-04-08,816,1341,525,166,126,234,88,253,258,128,198,91,61,163,67,97,15,45,67,65,76,55,58,23,60,40,42,16,7,17,154,58
2020-04-09,872,1468,584,177,137,246,100,264,266,129,205,93,61,168,74,105,16,46,72,65,81,62,61,25,69,41,45,18,7,19,179,62
2020-04-10,959,1615,632,192,141,279,109,272,288,150,216,95,68,176,79,117,16,48,81,68,86,65,63,25,72,46,48,18,7,20,188,63
2020-04-11,1035,1726,666,211,147,302,123,286,305,158,223,99,71,181,84,129,17,49,85,69,91,67,66,27,74,52,49,20,8,25,195,66
2020-04-12,1120,1841,710,238,154,324,132,290,327,173,229,100,75,186,96,138,17,51,94,71,94,71,67,31,78,54,49,21,10,27,200,66
2020-04-13,1272,2108,791,268,172,370,146,312,349,193,244,104,82,196,113,155,17,56,107,78,110,80,75,35,90,59,54,21,10,29,214,67
2020-04-14,1431,2354,894,315,190,419,159,326,367,211,260,108,91,200,120,167,17,60,126,80,116,90,83,37,106,66,59,22,10,33,231,68
2020-04-15,1605,2579,996,353,217,467,189,350,388,217,276,121,95,211,124,184,19,67,142,91,129,100,85,39,115,70,65,28,11,36,236,70
2020-04-16,1786,2827,1081,397,229,507,228,369,420,229,280,135,100,219,135,208,21,72,170,97,137,108,91,42,123,77,68,31,13,40,245,72
2020-04-17,1935,3155,1178,454,244,545,263,398,454,238,289,164,109,233,148,224,21,80,201,112,147,119,96,46,137,83,78,33,15,43,251,79
2020-04-18,2091,3352,1224,502,250,576,281,421,496,244,296,174,115,240,156,239,23,86,215,124,161,128,98,49,144,87,82,40,16,49,255,80
2020-04-19,2241,3537,1268,542,256,607,299,438,519,246,305,184,129,243,162,255,33,89,223,127,168,146,100,51,152,97,89,41,17,51,263,80
2020-04-20,2493,3978,1379,615,282,669,334,466,562,257,314,198,145,252,178,287,37,95,248,144,175,173,106,52,180,105,98,50,18,56,270,81
2020-04-21,2762,4408,1483,699,302,715,379,487,604,274,333,208,156,268,185,313,41,99,266,157,189,191,108,56,192,115,107,52,19,63,282,84
2020-04-22,3005,4806,1576,765,324,763,409,514,638,290,347,221,171,293,198,344,43,109,294,167,206,219,115,60,204,122,118,54,20,69,286,87
2020-04-23,3259,5148,1684,827,358,833,460,545,685,296,357,230,190,312,217,392,45,117,327,187,212,247,124,66,223,134,133,62,23,76,295,92
2020-04-24,3554,5651,1770,892,391,907,508,583,708,302,370,242,208,344,242,430,47,132,352,198,231,274,134,70,245,149,146,67,25,81,308,96
2020-04-25,3737,5894,1815,934,415,952,552,622,739,307,373,253,233,353,255,456,52,139,390,199,240,287,135,73,272,170,155,71,26,87,313,104
2020-04-26,3932,6115,1882,975,435,990,582,645,771,315,377,260,251,362,273,477,60,152,424,206,255,313,137,79,292,183,167,74,26,95,321,107
2020-04-27,4253,6593,1991,1034,472,1067,650,677,815,335,401,286,274,384,299,527,65,161,450,222,288,357,140,90,324,198,188,78,28,99,331,122
2020-04-28,4573,7125,2087,1091,514,1118,724,719,857,361,417,303,296,398,325,578,68,178,490,250,303,382,148,103,353,223,197,88,28,105,335,139
2020-04-29,4879,7685,2195,1141,546,1174,798,763,895,384,430,317,322,420,356,635,76,190,525,267,321,421,160,108,376,231,215,97,28,113,339,148
2020-04-30,5161,8199,2283,1225,606,1238,861,807,929,411,451,333,353,446,374,691,78,202,543,292,348,454,166,121,403,246,229,101,31,121,353,158
2020-05-01,5407,8520,2372,1278,632,1297,927,839,961,438,466,347,379,461,387,729,84,217,573,296,371,478,174,128,427,255,247,108,32,127,355,172
2020-05-02,5624,8841,2449,1326,660,1348,992,880,1030,460,471,356,400,489,426,769,90,223,602,300,403,502,186,143,443,271,257,115,32,138,364,185
2020-05-03,5842,9126,2539,1372,690,1378,1050,911,1060,470,476,367,427,505,454,794,97,238,627,303,429,543,190,158,470,277,271,117,34,150,371,196
2020-05-04,6302,9829,2679,1457,739,1454,1146,959,1093,510,502,400,460,532,506,843,100,262,666,351,491,583,198,173,513,301,302,122,37,168,378,225
2020-05-05,6615,10404,2816,1529,783,1506,1248,989,1116,573,533,423,489,552,534,899,103,295,697,362,543,620,209,197,533,318,329,127,42,177,390,242
2020-05-06,6919,11076,2928,1625,817,1589,1354,1032,1157,599,568,452,529,577,580,943,108,319,741,377,583,667,218,214,567,341,364,138,43,193,400,276
2020-05-07,7324,11750,3044,1729,854,1652,1472,1091,1196,623,592,489,566,626,616,977,119,342,782,400,621,713,231,229,596,358,398,147,44,204,411,289
2020-05-08,7720,12518,3184,1810,889,1713,1575,1133,1222,652,609,532,598,652,656,1018,129,364,810,413,676,744,258,235,639,378,433,156,46,218,420,315
2020-05-09,7949,12898,3259,1863,907,1765,1654,1177,1241,679,618,559,621,680,690,1049,131,380,837,413,719,762,285,242,683,398,455,160,49,231,426,328
2020-05-10,8147,13229,3328,1928,933,1806,1723,1209,1263,700,632,581,645,702,723,1074,132,408,858,417,747,782,305,251,709,413,476,162,50,238,435,347
2020-05-11,8671,13985,3459,2042,976,1877,1865,1281,1307,744,658,621,694,751,768,1132,138,461,892,429,812,821,354,271,778,448,509,171,52,262,441,378
2020-05-12,9152,14757,3579,2129,1028,1961,1987,1348,1345,780,685,674,750,787,825,1164,149,528,930,472,869,859,388,290,836,487,555,174,58,282,457,401
2020-05-13,9671,15605,3701,2245,1087,2039,2119,1432,1372,847,697,715,795,816,871,1225,159,597,970,486,963,896,417,305,936,525,622,182,62,298,470,424
2020-05-14,10112,16345,3807,2372,1144,2140,2288,1526,1413,885,721,767,862,873,938,1275,166,664,1002,508,1024,921,458,323,1013,546,689,195,74,310,478,458
2020-05-15,10580,17189,3930,2517,1183,2238,2477,1622,1434,957,740,805,940,937,995,1318,179,743,1064,535,1117,956,508,340,1115,581,770,203,78,324,483,487
2020-05-16,10834,17679,3997,2603,1214,2307,2607,1692,1454,985,748,838,991,954,1045,1355,180,807,1112,538,1168,967,535,343,1159,610,809,205,81,339,494,512
2020-05-17,11090,18025,4068,2682,1263,2370,2692,1756,1467,994,760,859,1017,984,1085,1382,188,825,1128,545,1227,983,554,349,1186,635,844,208,86,356,497,527
2020-05-18,11641,18970,4248,2804,1317,2509,2849,1879,1512,1036,805,914,1098,1038,1209,1439,196,948,1188,581,1360,1020,603,367,1252,678,936,214,93,372,508,562
2020-05-19,12078,19891,4392,2911,1368,2611,2997,2003,1547,1074,842,984,1169,1109,1317,1482,203,1018,1236,601,1452,1065,663,391,1318,727,1000,214,100,393,522,586
2020-05-20,12566,20812,4549,3071,1425,2730,3168,2122,1590,1137,881,1041,1243,1167,1458,1519,223,1087,1300,628,1545,1099,707,408,1417,766,1075,229,108,418,539,624
2020-05-21,13084,21705,4698,3211,1495,2844,3339,2260,1629,1171,937,1103,1338,1228,1594,1559,241,1180,1367,658,1644,1141,740,427,1495,814,1180,235,112,435,547,661
2020-05-22,13622,22506,4877,3348,1554,2985,3509,2422,1673,1220,974,1158,1415,1301,1714,1605,263,1255,1442,681,1755,1185,775,453,1591,856,1279,244,119,460,562,716
2020-05-23,13839,22889,4942,3445,1587,3041,3612,2549,1712,1255,1002,1210,1461,1341,1775,1627,266,1336,1485,697,1841,1203,797,466,1611,885,1331,254,123,476,569,736
2020-05-24,14122,23188,5018,3526,1617,3118,3714,2623,1736,1280,1017,1231,1501,1378,1843,1652,279,1370,1519,705,1914,1220,809,474,1646,900,1382,260,129,491,578,756
2020-05-25,14786,24105,5148,3702,1669,3282,3911,2783,1785,1348,1058,1344,1584,1466,1966,1691,303,1468,1600,743,2086,1265,860,495,1762,957,1522,270,136,525,595,804
2020-05-26,15336,24909,5274,3898,1723,3462,4089,2929,1817,1455,1106,1441,1654,1592,2074,1720,322,1545,1697,780,2256,1318,891,525,1864,993,1648,281,143,558,608,842
2020-05-27,15956,25787,5393,4118,1783,3646,4269,3128,1859,1520,1169,1544,1732,1730,2176,1752,350,1632,1791,811,2436,1348,924,560,1952,1029,1768,285,147,586,629,900
2020-05-28,16501,26541,5494,4332,1842,3792,4427,3277,1902,1578,1218,1682,1826,1848,2272,1778,372,1753,1846,854,2611,1390,951,594,2063,1071,1909,292,154,612,648,935
2020-05-29,17029,27346,5586,4498,1888,3968,4581,3410,1946,1635,1292,1819,1897,2006,2349,1826,405,1845,1929,895,2735,1422,984,623,2176,1113,2027,306,162,630,668,982
2020-05-30,17262,27779,5658,4597,1919,4086,4687,3512,1970,1673,1324,1903,1943,2128,2392,1835,442,1910,1973,909,2817,1438,1007,645,2213,1149,2094,313,168,647,681,1004
2020-05-31,17422,28066,5703,4668,1945,4148,4764,3566,1993,1692,1357,1967,1978,2197,2440,1848,453,1947,2015,926,2895,1456,1028,657,2251,1172,2158,316,172,653,689,1022
2020-06-01,17797,28875,5808,4862,1998,4315,4916,3730,2039,1757,1435,2132,2065,2400,2505,1884,492,2010,2095,984,2981,1499,1059,679,2393,1231,2296,331,182,687,715,1060
2020-06-02,18122,29624,5911,5008,2043,4427,5019,3857,2098,1815,1478,2279,2129,2577,2519,1907,521,2081,2147,1033,2984,1537,1096,716,2451,1270,2429,342,190,709,729,1109
2020-06-03,18376,30291,5994,5174,2084,4519,5097,4009,2142,1850,1504,2418,2169,2736,2546,1909,547,2127,2174,1085,2984,1574,1127,739,2474,1316,2516,351,200,720,741,1171
2020-06-04,18489,30673,6053,5327,2115,4551,5134,4144,2170,1886,1511,2493,2215,2814,2549,1909,582,2189,2178,1103,2984,1599,1159,759,2475,1330,2574,367,206,756,754,1223
2020-06-05,18545,30827,6087,5458,2128,4551,5136,4233,2179,1912,1513,2500,2255,2820,2551,1909,623,2210,2179,1104,2984,1608,1178,782,2478,1336,2610,379,214,757,762,1230
2020-06-06,18552,30831,6087,5474,2130,4551,5136,4236,2179,1915,1513,2500,2270,2820,2551,1909,627,2210,2179,1104,2984,1608,1179,786,2480,1336,2610,380,214,757,765,1230
2020-06-07,18552,30831,6087,5474,2130,4551,5136,4236,2179,1915,1513,2500,2270,2820,2551,1909,627,2210,2179,1104,2984,1608,1179,786,2480,1336,2610,380,214,757,765,1230
