date,15,09,02,27,31,25,30,21,23,19,05,11,13,14,12,08,10,20,28,01,26,17,22,18,16,29,07,32,06,04,03,24
2020-01-01,0,0,0,0,0,0,0,0,0,0,0,0,0,0,0,0,0,0,0,0,0,0,0,0,0,0,0,0,0,0,0,0
2020-01-02,0,0,0,0,0,0,0,0,0,0,0,0,0,0,0,0,0,0,0,0,0,0,0,0,0,0,0,0,0,0,0,0
2020-01-03,0,0,0,0,0,0,0,0,0,0,0,0,0,0,0,0,0,0,0,0,0,0,0,0,0,0,0,0,0,0,0,0
2020-01-04,0,0,0,0,0,0,0,0,0,0,0,0,0,0,0,0,0,0,0,0,0,0,0,0,0,0,0,0,0,0,0,0
2020-01-05,0,0,0,0,0,0,0,0,0,0,0,0,0,0,0,0,0,0,0,0,0,0,0,0,0,0,0,0,0,0,0,0
2020-01-06,0,0,0,0,0,0,0,0,0,0,0,0,0,0,0,0,0,0,0,0,0,0,0,0,0,0,0,0,0,0,0,0
2020-01-07,0,0,0,0,0,0,0,0,0,0,0,0,0,0,0,0,0,0,0,0,0,0,0,0,0,0,0,0,0,0,0,0
2020-01-08,0,0,0,0,0,0,0,0,0,0,0,0,0,0,0,0,0,0,0,0,0,0,0,0,0,0,0,0,0,0,0,0
2020-01-09,0,0,0,0,0,0,0,0,0,0,0,0,0,0,0,0,0,0,0,0,0,0,0,0,0,0,0,0,0,0,0,0
2020-01-10,0,0,0,0,0,0,0,0,0,0,0,0,0,0,0,0,0,0,0,0,0,0,0,0,0,0,0,0,0,0,0,0
2020-01-11,0,0,0,0,0,0,0,0,0,0,0,0,0,0,0,0,0,0,0,0,0,0,0,0,0,0,0,0,0,0,0,0
2020-01-12,0,0,0,0,0,0,0,0,0,0,0,0,0,0,0,0,0,0,0,0,0,0,0,0,0,0,0,0,0,0,0,0
2020-01-13,0,0,0,0,0,0,0,0,0,1,0,0,0,0,0,0,0,0,0,0,0,0,0,0,0,0,0,0,0,0,0,0
2020-01-14,0,0,0,0,0,0,0,0,0,0,0,0,0,0,0,0,0,0,0,1,0,0,0,0,0,0,0,0,0,0,0,0
2020-01-15,0,0,0,0,0,0,0,0,0,0,0,0,0,0,0,0,0,0,0,0,0,0,0,0,0,0,0,0,0,0,0,0
2020-01-16,0,0,0,0,0,0,0,0,0,0,0,0,0,0,0,0,0,0,0,0,0,0,0,0,0,0,0,0,0,0,0,0
2020-01-17,0,0,0,0,0,0,0,0,0,0,0,0,0,0,0,0,0,0,0,0,0,0,0,0,0,0,0,0,0,0,0,0
2020-01-18,0,0,0,0,0,0,0,0,0,0,0,0,0,0,0,0,0,0,0,0,0,0,0,0,0,0,0,0,0,0,0,0
2020-01-19,0,0,0,0,0,0,0,0,0,0,0,0,0,0,0,0,0,0,0,0,0,0,0,0,0,0,0,0,0,0,0,0
2020-01-20,0,0,0,0,0,0,0,0,0,0,0,0,0,0,0,0,0,0,0,0,0,0,0,0,0,0,0,0,0,0,0,0
2020-01-21,0,0,0,0,0,0,0,0,0,0,0,0,0,0,0,0,0,0,0,0,0,0,0,0,0,0,0,0,0,0,0,0
2020-01-22,0,0,0,0,0,0,0,0,0,0,0,0,0,0,0,0,0,0,0,0,0,0,0,0,0,0,0,0,0,0,0,0
2020-01-23,0,0,0,0,0,0,0,0,0,0,0,0,0,0,0,0,0,0,0,0,0,0,0,0,0,0,0,0,0,0,0,0
2020-01-24,0,0,0,0,0,0,0,0,0,0,0,0,0,0,0,0,0,0,0,0,0,0,0,0,0,0,0,0,0,0,0,0
2020-01-25,0,0,0,0,0,0,0,0,0,0,0,0,0,0,0,0,0,0,0,0,0,0,0,0,0,0,0,0,0,0,0,0
2020-01-26,0,0,0,0,0,0,0,0,0,0,0,0,0,0,0,0,0,0,0,0,0,0,0,0,0,0,0,0,0,0,0,0
2020-01-27,0,0,0,0,0,0,0,0,0,0,0,0,0,0,0,0,0,0,0,0,0,0,0,0,0,0,0,0,0,0,0,0
2020-01-28,0,0,0,0,0,0,0,0,0,0,1,0,0,0,0,0,0,0,0,0,0,0,0,0,0,0,0,0,0,0,0,0
2020-01-29,0,0,0,0,0,1,0,0,0,0,0,0,0,0,0,0,0,0,0,0,0,0,0,0,0,0,0,0,0,0,0,0
2020-01-30,0,0,0,0,0,0,0,0,0,0,0,0,0,0,0,0,0,0,0,0,0,0,0,0,0,0,0,0,0,0,0,0
2020-01-31,0,0,0,0,0,0,0,0,0,0,0,0,0,0,0,0,0,0,0,0,0,0,0,0,0,0,0,0,0,0,0,0
2020-02-01,0,0,0,0,0,0,0,0,0,0,0,0,0,0,0,0,0,0,0,0,0,0,0,0,0,0,0,0,0,0,0,0
2020-02-02,0,0,0,0,0,0,0,0,0,0,0,0,0,0,0,0,0,0,0,0,0,0,0,0,0,0,0,0,0,0,0,0
2020-02-03,0,0,0,0,0,0,0,0,0,0,0,0,0,0,0,0,0,0,0,0,0,0,0,0,0,0,0,0,0,0,0,0
2020-02-04,0,0,0,0,0,0,0,0,0,0,0,0,0,0,0,0,0,0,0,0,0,0,0,0,0,0,0,0,0,0,0,0
2020-02-05,0,0,0,0,0,0,0,0,0,0,0,0,0,0,0,0,0,0,0,0,0,0,0,0,0,0,0,0,0,0,0,0
2020-02-06,0,0,0,0,0,0,0,0,0,0,0,0,0,0,0,0,0,0,0,0,0,0,0,0,0,0,0,0,0,0,0,0
2020-02-07,0,0,0,0,0,0,0,0,0,0,0,0,0,0,0,0,0,0,0,0,0,0,0,0,0,0,0,0,0,0,0,0
2020-02-08,0,0,0,0,0,0,0,0,0,0,0,0,0,0,0,0,0,0,0,0,0,0,0,0,0,0,0,0,0,0,0,0
2020-02-09,0,0,0,0,0,0,0,0,0,0,0,0,0,0,0,0,0,0,0,0,0,0,0,0,0,0,0,0,0,0,0,0
2020-02-10,0,0,0,0,0,0,0,0,0,0,0,0,0,0,0,0,0,0,0,0,0,0,0,0,0,0,0,0,0,0,0,0
2020-02-11,0,0,0,0,0,0,0,0,0,0,0,0,0,0,0,0,0,0,0,0,0,0,0,0,0,0,0,0,0,0,0,0
2020-02-12,0,0,1,0,0,0,0,0,0,0,0,0,0,0,0,0,0,0,0,0,0,0,0,0,0,0,0,0,0,0,0,0
2020-02-13,0,0,0,0,0,0,0,0,0,0,0,0,0,0,0,0,0,0,0,0,0,0,0,0,0,0,0,0,0,0,0,0
2020-02-14,0,0,0,0,0,0,0,0,0,0,0,0,0,0,0,0,0,0,0,0,0,0,0,0,0,0,0,0,0,0,0,0
2020-02-15,0,0,0,0,0,0,0,0,0,0,0,0,0,0,0,0,0,0,0,0,0,0,0,0,0,0,0,0,0,0,0,0
2020-02-16,0,0,0,0,0,0,0,0,0,0,0,0,0,0,0,0,0,0,0,0,0,0,0,0,0,0,0,0,0,0,0,0
2020-02-17,0,0,0,0,0,0,0,0,0,0,0,0,0,0,0,0,0,0,0,0,0,0,0,0,0,0,0,0,0,0,0,0
2020-02-18,0,0,0,0,0,0,0,0,0,0,0,0,0,0,0,0,0,0,0,0,0,0,0,0,0,0,0,0,0,0,0,0
2020-02-19,0,0,0,0,0,0,0,0,0,0,0,0,0,0,0,0,0,0,0,0,0,0,0,0,0,0,0,0,0,0,0,0
2020-02-20,0,0,0,0,0,0,0,0,0,0,0,0,0,0,0,0,0,0,0,0,0,0,0,0,0,0,0,0,0,0,0,0
2020-02-21,0,0,0,0,0,0,0,0,0,0,0,0,0,0,0,0,0,0,0,0,0,0,0,0,0,0,0,0,0,0,0,0
2020-02-22,0,0,0,0,0,0,0,0,0,0,0,0,0,0,0,0,0,0,0,0,0,0,0,0,0,0,0,0,0,0,0,0
2020-02-23,0,0,0,0,0,0,0,0,0,0,0,0,0,0,0,0,0,0,0,0,0,0,0,0,0,0,0,0,0,0,0,0
2020-02-24,0,0,0,0,0,0,0,0,0,0,0,0,0,0,0,0,0,0,0,0,0,0,0,0,0,0,0,0,0,0,0,0
2020-02-25,0,0,0,0,0,0,0,0,0,0,0,0,0,0,0,0,0,0,0,0,0,0,0,0,0,0,0,0,0,0,0,0
2020-02-26,0,0,0,0,0,0,0,0,0,0,0,0,0,0,0,0,0,0,0,0,0,0,0,0,0,0,0,0,0,0,0,0
2020-02-27,0,3,0,0,0,0,0,0,0,0,0,0,1,0,0,0,0,0,0,0,0,0,0,0,0,0,0,0,0,0,0,0
2020-02-28,1,0,0,0,0,0,0,0,0,0,1,0,0,0,0,0,0,0,0,0,0,0,0,0,0,0,0,0,0,0,0,0
2020-02-29,0,0,0,0,0,0,0,0,0,0,0,0,0,0,0,0,0,0,0,0,0,0,0,0,0,0,1,0,0,0,0,0
2020-03-01,0,0,0,0,0,0,0,0,0,0,0,0,0,0,0,0,0,0,0,0,0,0,0,0,0,0,0,0,0,0,0,0
2020-03-02,1,1,0,0,0,0,0,0,0,0,0,0,0,0,0,0,0,0,0,0,0,0,0,0,0,0,0,0,0,0,0,0
2020-03-03,0,0,0,0,0,0,0,0,0,0,0,0,0,0,0,0,0,0,0,0,0,0,0,0,0,0,0,0,0,0,0,0
2020-03-04,2,0,0,0,0,0,0,0,0,0,0,0,0,0,0,0,0,0,0,0,0,0,0,0,0,0,0,0,0,0,0,0
2020-03-05,0,1,0,0,0,0,0,0,0,0,0,0,0,0,0,0,0,0,0,0,0,0,0,0,0,0,0,0,0,0,0,0
2020-03-06,0,0,0,0,0,0,0,0,0,0,0,0,0,0,0,0,0,0,0,0,0,0,0,0,0,0,0,0,0,0,0,0
2020-03-07,0,1,0,0,0,0,0,0,0,0,0,0,0,0,0,0,0,0,0,0,0,0,0,0,0,0,0,0,0,0,0,0
2020-03-08,2,1,0,0,0,0,0,0,0,0,0,0,0,0,0,0,0,0,0,0,0,0,0,0,0,0,0,0,0,1,0,0
2020-03-09,1,0,0,0,0,0,0,0,0,0,0,0,0,0,0,0,0,0,0,0,0,1,0,0,0,0,0,0,0,0,0,0
2020-03-10,2,3,0,0,0,0,0,0,0,2,0,0,0,0,0,0,0,0,0,0,0,0,2,0,0,0,0,0,0,0,0,0
2020-03-11,2,12,1,0,0,0,0,1,2,4,2,0,0,1,0,0,1,0,0,0,0,0,1,0,0,0,0,0,0,0,0,0
2020-03-12,3,17,0,0,1,0,0,1,1,0,0,0,0,3,0,0,0,0,0,0,0,0,1,0,0,0,0,0,0,1,0,0
2020-03-13,12,24,0,0,0,1,0,4,0,5,0,1,0,3,2,1,1,2,0,0,0,0,2,0,0,0,0,0,0,0,0,2
2020-03-14,4,21,0,0,0,0,0,2,4,6,0,0,0,5,0,1,1,0,0,1,0,1,1,0,0,0,0,0,1,1,0,0
2020-03-15,10,10,0,0,4,0,2,3,0,0,0,2,1,2,0,0,0,0,1,0,1,0,0,0,0,0,0,0,0,0,0,0
2020-03-16,6,26,1,0,2,1,0,2,3,6,1,2,0,12,2,0,0,0,1,0,0,0,0,0,0,0,0,1,1,0,0,1
2020-03-17,7,34,3,1,6,1,0,3,4,6,2,0,2,6,5,0,1,0,0,1,1,1,2,0,0,0,0,0,0,0,0,5
2020-03-18,6,31,4,3,0,0,7,3,2,9,2,1,0,17,1,1,1,0,0,3,0,1,2,1,1,0,1,0,0,0,1,1
2020-03-19,12,39,5,2,2,2,5,5,5,4,3,1,0,10,0,1,0,1,1,1,0,0,3,1,1,0,0,0,0,0,0,3
2020-03-20,10,24,6,2,6,1,1,5,1,12,4,4,3,5,0,3,0,1,1,2,1,1,0,0,2,0,0,1,0,0,1,3
2020-03-21,5,12,3,0,0,0,1,4,3,4,0,11,3,1,1,1,1,1,0,1,1,1,1,0,5,0,0,1,0,0,1,4
2020-03-22,5,11,2,0,8,1,0,2,4,4,0,1,0,3,0,1,0,1,2,1,0,0,0,0,0,0,0,1,0,0,0,1
2020-03-23,15,25,10,3,5,2,4,8,4,5,1,6,1,8,1,0,1,2,1,4,3,2,3,2,3,1,3,0,0,1,4,2
2020-03-24,23,34,9,12,8,6,2,15,9,5,6,1,1,7,0,1,1,1,1,0,4,3,4,3,3,1,0,1,1,0,2,0
2020-03-25,25,25,7,3,3,8,2,6,11,0,0,4,5,7,3,2,1,3,0,17,3,0,2,0,2,0,2,0,0,0,0,0
2020-03-26,28,51,11,5,0,9,5,14,9,1,3,6,4,6,4,2,0,3,0,3,1,0,1,0,3,0,0,0,0,1,2,1
2020-03-27,43,39,16,11,2,9,1,9,7,8,4,5,4,7,3,2,0,1,1,6,5,0,4,0,1,1,5,4,0,3,4,6
2020-03-28,27,49,7,1,4,5,1,13,7,2,4,4,0,2,3,2,0,1,3,5,4,3,2,1,1,2,1,1,0,0,4,0
2020-03-29,18,35,21,9,2,6,1,4,3,3,8,1,2,2,1,5,0,2,3,3,0,1,1,0,3,0,0,0,0,1,1,6
2020-03-30,50,77,29,10,10,11,4,14,21,4,18,4,7,7,2,3,2,2,4,4,1,1,1,0,0,1,2,0,1,0,13,3
2020-03-31,34,51,45,11,4,15,2,21,14,0,14,2,7,7,4,5,2,6,5,1,5,1,4,2,4,0,2,0,1,0,7,2
2020-04-01,49,55,66,9,8,14,10,13,23,0,17,1,5,2,3,7,1,1,8,0,1,3,3,0,4,4,4,0,2,0,5,0
2020-04-02,48,71,29,15,2,28,6,18,11,5,18,2,1,8,1,6,0,0,1,0,3,8,1,0,1,1,2,1,0,2,11,0
2020-04-03,49,79,38,20,8,10,8,13,13,2,22,5,3,10,1,5,0,3,9,2,1,1,4,1,6,0,5,0,0,1,16,0
2020-04-04,34,56,24,3,2,12,2,10,9,3,11,3,2,2,2,9,0,2,3,0,7,3,1,4,2,2,1,1,0,0,6,3
2020-04-05,40,54,20,9,5,15,2,6,10,1,4,3,2,2,3,12,0,2,4,3,2,3,0,2,2,6,1,1,0,3,5,2
2020-04-06,82,117,68,7,12,27,6,22,32,10,26,7,3,3,8,10,1,5,10,4,11,8,4,2,6,8,5,1,0,2,23,3
2020-04-07,71,127,40,13,13,20,11,12,20,7,8,6,3,6,11,7,0,0,5,1,10,6,5,2,6,7,2,0,0,0,24,6
2020-04-08,89,125,59,17,9,29,5,20,26,9,18,8,1,9,6,10,0,5,3,1,11,6,3,2,4,6,5,2,0,0,24,4
2020-04-09,56,127,59,11,11,12,12,11,8,1,7,2,0,5,7,8,1,1,5,0,5,7,3,2,9,1,3,2,0,2,25,4
2020-04-10,87,147,48,15,4,33,9,8,22,21,11,2,7,8,5,12,0,2,9,3,5,3,2,0,3,5,3,0,0,1,9,1
2020-04-11,76,111,34,19,6,23,14,14,17,8,7,4,3,5,5,12,1,1,4,1,5,2,3,2,2,6,1,2,1,5,7,3
2020-04-12,85,115,44,27,7,22,9,4,22,15,6,1,4,5,12,9,0,2,9,2,3,4,1,4,4,2,0,1,2,2,5,0
2020-04-13,152,267,81,30,18,46,14,22,22,20,15,4,7,10,17,17,0,5,13,7,16,9,8,4,12,5,5,0,0,2,14,1
2020-04-14,159,246,103,47,18,49,13,14,18,18,16,4,9,4,7,12,0,4,19,2,6,10,8,2,16,7,5,1,0,4,17,1
2020-04-15,174,225,102,38,27,48,30,24,21,6,16,13,4,11,4,17,2,7,16,11,13,10,2,2,9,4,6,6,1,3,5,2
2020-04-16,181,248,85,44,12,40,39,19,32,12,4,14,5,8,11,24,2,5,28,6,8,8,6,3,8,7,3,3,2,4,9,2
2020-04-17,149,328,97,57,15,38,35,29,34,9,9,29,9,14,13,16,0,8,31,15,10,11,5,4,14,6,10,2,2,3,6,7
2020-04-18,156,197,46,48,6,31,18,23,42,6,7,10,6,7,8,15,2,6,14,12,14,9,2,3,7,4,4,7,1,6,4,1
2020-04-19,150,185,44,40,6,31,18,17,23,2,9,10,14,3,6,16,10,3,8,3,7,18,2,2,8,10,7,1,1,2,8,0
2020-04-20,252,441,111,73,26,62,35,28,43,11,9,14,16,9,16,32,4,6,25,17,7,27,6,1,28,8,9,9,1,5,7,1
2020-04-21,269,430,104,84,20,46,45,21,42,17,19,10,11,16,7,26,4,4,18,13,14,18,2,4,12,10,9,2,1,7,12,3
2020-04-22,243,398,93,66,22,48,30,27,34,16,14,13,15,25,13,31,2,10,28,10,17,28,7,4,12,7,11,2,1,6,4,3
2020-04-23,254,342,108,62,34,70,51,31,47,6,10,9,19,19,19,48,2,8,33,20,6,28,9,6,19,12,15,8,3,7,9,5
2020-04-24,295,503,86,65,33,74,48,38,23,6,13,12,18,32,25,38,2,15,25,11,19,27,10,4,22,15,13,5,2,5,13,4
2020-04-25,183,243,45,42,24,45,44,39,31,5,3,11,25,9,13,26,5,7,38,1,9,13,1,3,27,21,9,4,1,6,5,8
2020-04-26,195,221,67,41,20,38,30,23,32,8,4,7,18,9,18,21,8,13,34,7,15,26,2,6,20,13,12,3,0,8,8,3
2020-04-27,321,478,109,59,37,77,68,32,44,20,24,26,23,22,26,50,5,9,26,16,33,44,3,11,32,15,21,4,2,4,10,15
2020-04-28,320,532,96,57,42,51,74,42,42,26,16,17,22,14,26,51,3,17,40,28,15,25,8,13,29,25,9,10,0,6,4,17
2020-04-29,306,560,108,50,32,56,74,44,38,23,13,14,26,22,31,57,8,12,35,17,18,39,12,5,23,8,18,9,0,8,4,9
2020-04-30,282,514,88,84,60,64,63,44,34,27,21,16,31,26,18,56,2,12,18,25,27,33,6,13,27,15,14,4,3,8,14,10
2020-05-01,246,321,89,53,26,59,66,32,32,27,15,14,26,15,13,38,6,15,30,4,23,24,8,7,24,9,18,7,1,6,2,14
2020-05-02,217,321,77,48,28,51,65,41,69,22,5,9,21,28,39,40,6,6,29,4,32,24,12,15,16,16,10,7,0,11,9,13
2020-05-03,218,285,90,46,30,30,58,31,30,10,5,11,27,16,28,25,7,15,25,3,26,41,4,15,27,6,14,2,2,12,7,11
2020-05-04,460,703,140,85,49,76,96,48,33,40,26,33,33,27,52,49,3,24,39,48,62,40,8,15,43,24,31,5,3,18,7,29
2020-05-05,313,575,137,72,44,52,102,30,23,63,31,23,29,20,28,56,3,33,31,11,52,37,11,24,20,17,27,5,5,9,12,17
2020-05-06,304,672,112,96,34,83,106,43,41,26,35,29,40,25,46,44,5,24,44,15,40,47,9,17,34,23,35,11,1,16,10,34
2020-05-07,405,674,116,104,37,63,118,59,39,24,24,37,37,49,36,34,11,23,41,23,38,46,13,15,29,17,34,9,1,11,11,13
2020-05-08,396,768,140,81,35,61,103,42,26,29,17,43,32,26,40,41,10,22,28,13,55,31,27,6,43,20,35,9,2,14,9,26
2020-05-09,229,380,75,53,18,52,79,44,19,27,9,27,23,28,34,31,2,16,27,0,43,18,27,7,44,20,22,4,3,13,6,13
2020-05-10,198,331,69,65,26,41,69,32,22,21,14,22,24,22,33,25,1,28,21,4,28,20,20,9,26,15,21,2,1,7,9,19
2020-05-11,524,756,131,114,43,71,142,72,44,44,26,40,49,49,45,58,6,53,34,12,65,39,49,20,69,35,33,9,2,24,6,31
2020-05-12,481,772,120,87,52,84,122,67,38,36,27,53,56,36,57,32,11,67,38,43,57,38,34,19,58,39,46,3,6,20,16,23
2020-05-13,519,848,122,116,59,78,132,84,27,67,12,41,45,29,46,61,10,69,40,14,94,37,29,15,100,38,67,8,4,16,13,23
2020-05-14,441,740,106,127,57,101,169,94,41,38,24,52,67,57,67,50,7,67,32,22,61,25,41,18,77,21,67,13,12,12,8,34
2020-05-15,468,844,123,145,39,98,189,96,21,72,19,38,78,64,57,43,13,79,62,27,93,35,50,17,102,35,81,8,4,14,5,29
2020-05-16,254,490,67,86,31,69,130,70,20,28,8,33,51,17,50,37,1,64,48,3,51,11,27,3,44,29,39,2,3,15,11,25
2020-05-17,256,346,71,79,49,63,85,64,13,9,12,21,26,30,40,27,8,18,16,7,59,16,19,6,27,25,35,3,5,17,3,15
2020-05-18,551,945,180,122,54,139,157,123,45,42,45,55,81,54,124,57,8,123,60,36,133,37,49,18,66,43,92,6,7,16,11,35
2020-05-19,437,921,144,107,51,102,148,124,35,38,37,70,71,71,108,43,7,70,48,20,92,45,60,24,66,49,64,0,7,21,14,24
2020-05-20,488,921,157,160,57,119,171,119,43,63,39,57,74,58,141,37,20,69,64,27,93,34,44,17,99,39,75,15,8,25,17,38
2020-05-21,518,893,149,140,70,114,171,138,39,34,56,62,95,61,136,40,18,93,67,30,99,42,33,19,78,48,105,6,4,17,8,37
2020-05-22,538,801,179,137,59,141,170,162,44,49,37,55,77,73,120,46,22,75,75,23,111,44,35,26,96,42,99,9,7,25,15,55
2020-05-23,217,383,65,97,33,56,103,127,39,35,28,52,46,40,61,22,3,81,43,16,86,18,22,13,20,29,52,10,4,16,7,20
2020-05-24,283,299,76,81,30,77,102,74,24,25,15,21,40,37,68,25,13,34,34,8,73,17,12,8,35,15,51,6,6,15,9,20
2020-05-25,664,917,130,176,52,164,197,160,49,68,41,113,83,88,123,39,24,98,81,38,172,45,51,21,116,57,140,10,7,34,17,48
2020-05-26,550,804,126,196,54,180,178,146,32,107,48,97,70,126,108,29,19,77,97,37,170,53,31,30,102,36,126,11,7,33,13,38
2020-05-27,620,878,119,220,60,184,180,199,42,65,63,103,78,138,102,32,28,87,94,31,180,30,33,35,88,36,120,4,4,28,21,58
2020-05-28,545,754,101,214,59,146,158,149,43,58,49,138,94,118,96,26,22,121,55,43,175,42,27,34,111,42,141,7,7,26,19,35
2020-05-29,528,805,92,166,46,176,154,133,44,57,74,137,71,158,77,48,33,92,83,41,124,32,33,29,113,42,118,14,8,18,20,47
2020-05-30,233,433,72,99,31,118,106,102,24,38,32,84,46,122,43,9,37,65,44,14,82,16,23,22,37,36,67,7,6,17,13,22
2020-05-31,160,287,45,71,26,62,77,54,23,19,33,64,35,69,48,13,11,37,42,17,78,18,21,12,38,23,64,3,4,6,8,18
2020-06-01,375,809,105,194,53,167,152,164,46,65,78,165,87,203,65,36,39,63,80,58,86,43,31,22,142,59,138,15,10,34,26,38
2020-06-02,325,749,103,146,45,112,103,127,59,58,43,147,64,177,14,23,29,71,52,49,3,38,37,37,58,39,133,11,8,22,14,49
2020-06-03,254,667,83,166,41,92,78,152,44,35,26,139,40,159,27,2,26,46,27,52,0,37,31,23,23,46,87,9,10,11,12,62
2020-06-04,113,382,59,153,31,32,37,135,28,36,7,75,46,78,3,0,35,62,4,18,0,25,32,20,1,14,58,16,6,36,13,52
2020-06-05,56,154,34,131,13,0,2,89,9,26,2,7,40,6,2,0,41,21,1,1,0,9,19,23,3,6,36,12,8,1,8,7
2020-06-06,7,4,0,16,2,0,0,3,0,3,0,0,15,0,0,0,4,0,0,0,0,0,1,4,2,0,0,1,0,0,3,0
2020-06-07,0,0,0,0,0,0,0,0,0,0,0,0,0,0,0,0,0,0,0,0,0,0,0,0,0,0,0,0,0,0,0,0
