date,01,02,03,04,05,06,07,08,09,10,11,12,13,14,15,16,17,18,19,20,21,22,23,24,25,26,27,28,29,30,31,32
2020-01-01,0,0,0,0,0,0,0,0,0,0,0,0,0,0,0,0,0,0,0,0,0,0,0,0,0,0,0,0,0,0,0,0
2020-01-02,0,0,0,0,0,0,0,0,0,0,0,0,0,0,0,0,0,0,0,0,0,0,0,0,0,0,0,0,0,0,0,0
2020-01-03,0,0,0,0,0,0,0,0,0,0,0,0,0,0,0,0,0,0,0,0,0,0,0,0,0,0,0,0,0,0,0,0
2020-01-04,0,0,0,0,0,0,0,0,0,0,0,0,0,0,0,0,0,0,0,0,0,0,0,0,0,0,0,0,0,0,0,0
2020-01-05,0,0,0,0,0,0,0,0,0,0,0,0,0,0,0,0,0,0,0,0,0,0,0,0,0,0,0,0,0,0,0,0
2020-01-06,0,0,0,0,0,0,0,0,0,0,0,0,0,0,0,0,0,0,0,0,0,0,0,0,0,0,0,0,0,0,0,0
2020-01-07,0,0,0,0,0,0,0,0,0,0,0,0,0,0,0,0,0,0,0,0,0,0,0,0,0,0,0,0,0,0,0,0
2020-01-08,0,0,0,0,0,0,0,0,0,0,0,0,0,0,0,0,0,0,0,0,0,0,0,0,0,0,1,0,0,0,0,0
2020-01-09,0,0,0,0,0,0,0,0,0,0,0,0,0,0,0,0,0,0,0,0,0,0,0,0,0,0,0,0,0,0,0,0
2020-01-10,0,0,0,0,0,0,0,0,0,0,0,0,0,0,0,0,0,0,0,0,0,0,0,0,0,0,0,0,0,0,0,0
2020-01-11,0,0,0,0,0,0,0,0,0,0,0,0,0,0,0,0,0,0,0,0,0,0,0,0,0,0,0,0,0,0,0,0
2020-01-12,0,0,0,0,0,0,0,0,0,0,0,0,0,0,0,0,0,0,0,0,0,0,0,0,0,0,0,0,0,0,0,0
2020-01-13,0,0,0,0,0,0,0,0,0,0,0,0,0,0,0,0,0,0,0,0,0,0,0,0,0,0,0,0,0,0,0,0
2020-01-14,1,0,0,0,0,0,0,0,0,0,0,0,0,0,0,0,0,0,0,0,0,0,0,0,0,0,0,0,0,0,0,0
2020-01-15,0,0,0,0,0,0,0,0,0,0,0,0,0,0,0,0,0,0,0,0,0,0,0,0,0,0,0,0,0,0,0,0
2020-01-16,0,0,0,0,0,0,0,0,0,0,0,0,0,0,0,0,0,0,0,0,0,0,0,0,0,0,0,0,0,0,0,0
2020-01-17,0,0,0,0,0,0,0,0,0,0,0,0,0,0,0,0,0,0,0,0,0,0,0,0,0,0,0,0,0,0,0,0
2020-01-18,0,0,0,0,0,0,0,0,0,0,0,0,0,0,0,0,0,0,0,0,0,0,0,0,0,0,0,0,0,0,0,0
2020-01-19,0,0,0,0,0,0,0,0,0,0,0,0,0,0,0,0,0,0,0,0,0,0,0,0,0,0,0,0,0,0,0,0
2020-01-20,0,0,0,0,0,0,0,0,0,0,0,0,0,0,0,0,0,0,0,0,0,0,0,0,0,0,0,0,0,0,0,0
2020-01-21,0,0,0,0,0,0,0,0,0,0,0,0,0,0,0,0,0,0,0,0,0,0,0,0,0,0,0,0,0,0,0,0
2020-01-22,0,0,0,0,0,0,0,0,0,0,0,0,0,0,0,0,0,0,0,0,0,0,0,0,0,0,0,0,0,0,0,0
2020-01-23,0,0,0,0,0,0,0,0,0,0,0,0,0,0,0,0,0,0,0,0,0,0,0,0,0,0,0,0,0,0,0,0
2020-01-24,0,0,0,0,0,0,0,0,0,0,0,0,0,0,0,0,0,0,0,0,0,0,0,0,0,0,0,0,0,0,0,0
2020-01-25,0,0,0,0,0,0,0,0,0,0,0,0,0,0,0,0,0,0,0,0,0,0,0,0,0,0,0,0,0,0,0,0
2020-01-26,0,0,0,0,0,0,0,0,0,0,0,0,0,0,0,0,0,0,0,0,0,0,0,0,0,0,0,0,0,0,0,0
2020-01-27,0,0,0,0,0,0,0,0,0,0,0,0,0,0,0,0,0,0,0,0,0,0,0,0,0,0,0,0,0,0,0,0
2020-01-28,0,0,0,0,1,0,0,0,0,0,0,0,0,0,0,0,0,0,0,0,0,0,0,0,0,0,0,0,0,0,0,0
2020-01-29,0,0,0,0,0,0,0,0,0,0,0,0,0,0,0,0,0,0,0,0,0,0,0,0,0,0,0,0,0,0,0,0
2020-01-30,0,0,0,0,0,0,0,0,0,0,0,0,0,0,0,0,0,0,0,0,0,0,0,0,0,0,0,0,0,0,0,0
2020-01-31,0,0,0,0,0,0,0,0,1,0,0,0,0,0,0,0,0,0,0,0,0,0,0,0,0,0,0,0,0,0,0,0
2020-02-01,0,0,0,0,0,0,0,0,0,0,0,0,0,0,0,0,0,0,0,0,0,0,0,0,0,0,0,0,0,0,0,0
2020-02-02,0,0,0,0,0,0,0,0,0,0,0,0,0,0,0,0,0,0,0,0,0,0,0,0,0,0,0,0,0,0,0,0
2020-02-03,0,0,0,0,0,0,0,0,0,0,0,0,0,0,0,0,0,0,0,0,0,0,0,0,0,0,0,0,0,0,0,0
2020-02-04,0,0,0,0,0,0,0,0,0,0,0,0,0,0,0,0,0,0,0,0,0,0,0,0,0,0,0,0,0,0,0,0
2020-02-05,0,0,0,0,0,0,0,0,0,0,0,0,0,0,0,0,0,0,0,0,0,0,0,0,0,0,0,0,0,0,0,0
2020-02-06,0,0,0,0,0,0,0,0,0,0,0,0,0,0,0,0,0,0,0,0,0,0,0,0,0,0,0,0,0,0,0,0
2020-02-07,0,0,0,0,0,0,0,0,0,0,0,0,0,0,0,0,0,0,0,0,0,0,0,0,0,0,0,0,0,0,0,0
2020-02-08,0,0,0,0,0,0,0,0,0,0,0,0,0,0,0,0,0,0,0,0,0,0,0,0,0,0,0,0,0,0,0,0
2020-02-09,0,0,0,0,0,0,0,0,0,0,0,0,0,0,0,0,0,0,0,0,0,0,0,0,0,0,0,0,0,0,0,0
2020-02-10,0,0,0,0,0,0,0,0,0,0,0,0,0,0,0,0,0,0,0,0,0,0,0,0,0,0,0,0,0,0,0,0
2020-02-11,0,0,0,0,0,0,0,0,0,0,0,0,0,0,0,0,0,0,0,0,0,0,0,0,0,0,0,0,0,0,0,0
2020-02-12,0,0,0,0,0,0,0,0,0,0,0,0,0,0,0,0,0,0,0,0,0,0,0,0,0,0,0,0,0,0,0,0
2020-02-13,0,0,0,0,0,0,0,0,0,0,0,0,0,0,0,0,0,0,0,0,0,0,0,0,0,0,0,0,0,0,0,0
2020-02-14,0,0,0,0,0,0,0,0,0,0,0,0,0,0,0,0,0,0,0,0,0,0,0,0,0,0,0,0,0,0,0,0
2020-02-15,0,0,0,0,0,0,0,0,0,0,0,0,0,0,0,0,0,0,0,0,0,0,0,0,0,0,0,0,0,0,0,0
2020-02-16,0,0,0,0,0,0,0,0,0,0,0,0,0,0,0,0,0,0,0,0,0,0,0,0,0,0,0,0,0,0,0,0
2020-02-17,0,0,0,0,0,0,0,0,0,0,0,0,0,0,0,0,0,0,0,0,0,0,0,0,0,0,0,0,0,0,0,0
2020-02-18,0,0,0,0,0,0,0,0,0,0,0,0,0,0,0,0,0,0,0,0,0,0,0,0,0,0,0,0,0,0,0,0
2020-02-19,0,0,0,0,0,0,0,0,0,0,0,0,0,0,0,0,0,0,0,0,0,0,0,0,0,0,0,0,0,0,0,0
2020-02-20,0,0,0,0,0,0,0,0,0,0,0,0,0,0,0,0,0,0,0,0,0,0,0,0,0,0,0,0,0,0,0,0
2020-02-21,0,0,0,0,0,0,0,0,0,0,0,0,0,0,0,0,0,0,0,0,0,0,0,0,0,0,0,0,0,0,0,0
2020-02-22,0,0,0,0,0,0,0,0,0,0,0,0,0,0,0,0,0,0,0,0,0,0,0,0,0,0,0,0,0,0,0,0
2020-02-23,0,0,0,0,0,0,0,0,0,0,0,0,0,0,0,0,0,0,0,0,0,0,0,0,0,0,0,0,0,0,0,0
2020-02-24,0,0,0,0,0,0,0,0,0,0,0,0,0,0,0,0,0,0,0,0,0,0,0,0,0,0,0,0,0,0,0,0
2020-02-25,0,0,0,0,0,0,0,0,0,0,0,0,0,0,0,0,0,0,0,0,0,0,0,0,0,0,0,0,0,0,0,0
2020-02-26,0,0,0,0,0,0,0,0,0,0,0,0,0,0,0,0,0,0,0,0,0,0,0,0,0,0,0,0,0,0,0,0
2020-02-27,0,0,0,0,0,0,0,0,3,0,0,0,1,0,0,0,0,0,0,0,0,0,0,0,0,0,0,0,0,0,0,0
2020-02-28,0,0,0,0,1,0,0,0,0,0,0,0,0,0,1,0,0,0,0,0,0,0,0,0,0,0,0,0,0,0,0,0
2020-02-29,0,0,0,0,0,0,1,0,0,0,0,0,0,0,0,0,0,0,0,0,0,0,0,0,0,0,0,0,0,0,0,0
2020-03-01,0,0,0,0,0,0,0,0,0,0,0,0,0,0,0,0,0,0,0,0,0,0,0,0,0,0,0,0,0,0,0,0
2020-03-02,0,0,0,0,0,0,0,0,1,0,0,0,0,0,1,0,0,0,0,0,0,0,0,0,0,0,0,0,0,0,0,0
2020-03-03,0,0,0,0,0,0,0,0,0,0,0,0,0,0,0,0,0,0,0,0,0,0,0,0,0,0,0,0,0,0,0,0
2020-03-04,0,0,0,0,0,0,0,0,0,0,0,0,0,0,2,0,0,0,0,0,0,0,0,0,0,0,0,0,0,0,0,0
2020-03-05,0,0,0,0,0,0,0,0,1,0,0,0,0,0,0,0,0,0,0,0,0,0,0,0,0,0,0,0,0,0,0,0
2020-03-06,0,0,0,0,0,0,0,0,0,0,0,0,0,0,0,0,0,0,0,0,0,0,0,0,0,0,0,0,0,0,0,0
2020-03-07,0,0,0,0,0,0,0,0,1,0,0,0,0,0,0,0,0,0,0,0,0,0,0,0,0,0,0,0,0,0,0,0
2020-03-08,0,0,0,1,0,0,0,0,1,0,0,0,0,0,2,0,0,0,0,0,0,0,0,0,0,0,0,0,0,0,0,0
2020-03-09,0,0,0,0,0,0,0,0,0,0,0,0,0,0,1,0,1,0,0,0,0,0,0,0,0,0,0,0,0,0,0,0
2020-03-10,0,0,0,0,0,0,0,0,3,0,0,0,0,0,2,0,0,0,2,0,0,2,0,0,0,0,0,0,0,0,0,0
2020-03-11,0,1,0,0,2,0,0,0,12,1,0,0,0,1,2,0,0,0,4,0,1,1,2,0,0,0,0,0,0,0,0,0
2020-03-12,0,0,0,1,0,0,0,0,17,0,0,0,0,3,3,0,0,0,0,0,1,1,1,0,0,0,0,0,0,0,1,0
2020-03-13,0,0,0,0,0,0,0,1,24,1,1,2,0,3,12,0,0,0,5,2,4,2,0,2,1,0,0,0,0,0,0,0
2020-03-14,1,0,0,1,0,1,0,1,21,1,0,0,0,5,4,0,1,0,6,0,2,1,4,0,0,0,0,0,0,0,0,0
2020-03-15,0,0,0,0,0,0,0,0,10,0,2,0,1,2,10,0,0,0,0,0,3,0,0,0,0,1,0,1,0,2,4,0
2020-03-16,0,1,0,0,1,1,0,0,26,0,2,2,0,12,6,0,0,0,6,0,2,0,3,1,1,0,0,1,0,0,2,1
2020-03-17,1,3,0,0,2,0,0,0,34,1,0,5,2,6,7,0,1,0,6,0,3,2,4,5,1,1,1,0,0,0,6,0
2020-03-18,3,4,1,0,2,0,1,1,31,1,1,1,0,17,6,1,1,1,9,0,3,2,2,1,0,0,3,0,0,7,0,0
2020-03-19,1,5,0,0,3,0,0,1,39,0,1,0,0,10,12,1,0,1,4,1,5,3,5,3,2,0,2,1,0,5,2,0
2020-03-20,2,6,1,0,4,0,0,3,24,0,4,0,3,5,10,2,1,0,12,1,5,0,1,3,1,1,2,1,0,1,6,1
2020-03-21,1,3,1,0,0,0,0,1,12,1,11,1,3,1,5,5,1,0,4,1,4,1,3,4,0,1,0,0,0,1,0,1
2020-03-22,1,2,0,0,0,0,0,1,11,0,1,0,0,3,5,0,0,0,4,1,2,0,4,1,1,0,0,2,0,0,8,1
2020-03-23,4,10,4,1,1,0,3,0,25,1,6,1,1,8,14,3,2,2,5,2,8,3,4,2,2,3,3,1,1,4,5,0
2020-03-24,0,9,2,0,5,1,0,1,34,1,1,0,1,7,23,3,3,3,5,1,15,4,9,0,6,4,12,1,2,2,8,1
2020-03-25,17,7,0,0,0,0,2,2,25,1,4,3,5,7,24,2,0,0,0,3,6,2,11,0,8,3,3,0,0,2,3,0
2020-03-26,3,11,2,1,3,0,0,2,51,0,6,4,4,6,26,3,0,0,2,3,14,1,9,1,9,1,5,0,0,5,0,0
2020-03-27,6,16,4,3,4,0,5,2,38,0,5,3,4,7,43,1,0,0,8,1,9,3,7,6,9,5,11,1,1,1,2,4
2020-03-28,5,7,4,0,4,0,1,2,49,0,4,3,0,2,27,1,3,0,2,1,13,2,7,0,5,4,1,3,2,1,4,1
2020-03-29,3,21,1,1,7,0,0,5,35,0,1,1,2,2,18,3,1,0,3,2,4,1,3,6,6,0,9,3,0,1,2,0
2020-03-30,4,29,13,0,19,1,1,3,76,2,4,3,7,7,50,0,1,0,4,2,14,1,21,3,11,1,10,4,1,3,10,0
2020-03-31,1,45,7,0,14,1,2,5,50,2,2,4,7,7,33,4,1,2,0,6,21,4,14,2,15,5,11,5,0,2,4,0
2020-04-01,0,65,5,0,17,2,4,7,55,1,1,3,5,2,49,4,3,0,0,1,13,3,23,0,14,1,9,8,4,9,8,0
2020-04-02,0,29,11,2,18,0,2,6,71,0,2,1,1,8,48,0,8,0,5,0,18,1,11,0,28,3,15,1,1,6,2,1
2020-04-03,2,38,16,1,22,0,5,5,79,0,5,1,3,10,47,6,1,1,2,3,14,4,13,0,10,1,20,9,0,8,8,0
2020-04-04,0,24,6,0,11,0,1,8,56,0,3,2,2,2,35,2,3,4,3,2,10,1,9,3,11,7,3,3,2,2,2,1
2020-04-05,3,20,5,3,4,0,1,12,48,0,3,3,1,2,39,2,3,2,1,2,6,0,10,2,15,2,9,4,6,2,5,1
2020-04-06,4,66,23,2,26,0,5,10,116,1,7,8,3,3,81,6,8,2,10,6,22,4,32,3,27,11,7,10,8,6,12,1
2020-04-07,1,39,24,0,8,0,2,7,124,0,6,11,3,6,71,6,6,2,7,0,12,5,20,6,20,10,13,5,7,11,13,0
2020-04-08,1,59,24,0,18,0,5,10,122,0,8,6,1,9,88,4,6,2,9,5,20,3,26,2,29,11,17,3,6,5,9,2
2020-04-09,0,59,25,2,7,0,3,6,127,1,2,7,0,5,58,9,7,2,1,1,11,3,8,4,12,5,11,5,1,12,11,2
2020-04-10,2,47,9,1,11,0,3,11,146,0,2,5,7,8,84,3,2,0,21,2,8,2,22,1,33,5,14,9,5,9,5,0
2020-04-11,1,33,7,5,7,1,1,11,109,1,4,5,3,5,75,2,2,2,8,1,14,3,17,2,23,5,19,4,6,14,6,2
2020-04-12,2,43,5,2,6,2,0,9,112,0,1,12,5,5,84,4,4,4,15,2,4,1,22,0,22,3,27,9,2,9,7,1
2020-04-13,6,81,14,2,16,0,5,15,237,0,4,17,7,10,150,12,9,4,20,5,21,8,22,1,46,16,29,13,5,14,17,0
2020-04-14,2,101,17,4,16,0,5,11,237,0,4,7,8,4,157,16,10,2,18,4,14,8,18,1,48,6,48,19,7,13,18,1
2020-04-15,11,99,5,3,16,1,6,16,221,2,13,5,4,11,176,9,10,2,6,7,24,3,21,2,48,13,36,16,4,30,25,6
2020-04-16,6,80,9,4,3,2,3,21,237,2,14,11,4,8,181,8,8,3,12,5,21,6,32,2,40,7,43,28,7,39,12,3
2020-04-17,15,92,6,3,9,2,10,15,319,0,28,13,9,14,155,13,11,4,9,8,29,5,35,7,38,10,56,31,6,34,15,2
2020-04-18,12,46,4,6,7,1,4,10,193,2,10,8,6,7,157,7,9,3,6,6,24,2,41,1,30,14,48,13,4,18,5,7
2020-04-19,3,39,8,2,9,1,7,14,175,10,10,6,13,3,148,8,13,2,1,3,16,2,23,0,33,7,40,8,10,18,6,1
2020-04-20,15,106,7,5,9,1,9,28,424,4,14,15,13,9,252,28,29,1,11,7,28,5,44,1,62,7,73,26,8,36,26,9
2020-04-21,13,94,12,7,19,1,9,24,421,4,10,7,10,16,264,12,21,4,17,4,20,2,41,1,47,15,83,18,10,45,19,2
2020-04-22,10,82,4,6,14,1,11,30,386,2,13,13,16,25,241,12,32,4,15,10,27,7,33,1,48,17,63,28,7,29,20,2
2020-04-23,20,106,9,7,9,3,14,40,337,2,9,18,19,19,249,19,28,6,6,8,30,9,46,4,69,6,64,33,12,51,33,8
2020-04-24,11,86,13,5,14,2,12,34,492,2,12,23,16,32,297,22,34,4,7,15,37,9,23,4,74,19,63,25,15,48,33,5
2020-04-25,1,45,5,6,3,1,8,20,232,5,11,12,23,9,193,27,16,3,5,7,38,0,30,7,45,9,41,38,21,45,24,4
2020-04-26,6,62,6,8,4,0,11,19,202,7,7,16,17,9,196,19,35,5,7,13,22,2,32,3,38,15,40,34,12,28,20,3
2020-04-27,14,104,10,4,24,2,20,43,465,5,26,24,24,21,350,31,51,11,20,9,32,3,44,15,74,32,58,24,15,68,37,4
2020-04-28,25,91,4,6,16,0,9,41,510,3,17,24,25,15,324,29,29,13,26,17,43,9,40,16,49,15,57,40,25,73,42,10
2020-04-29,16,100,4,8,13,0,18,49,530,8,14,31,26,18,317,23,56,6,23,12,48,12,35,9,57,18,49,35,8,72,32,9
2020-04-30,25,81,14,7,20,3,14,50,484,2,16,18,31,26,288,26,45,13,27,12,45,6,26,10,61,27,83,17,15,60,59,4
2020-05-01,4,85,1,6,14,1,17,33,276,6,14,11,26,16,257,23,35,7,27,13,35,8,30,14,53,22,50,28,9,59,26,7
2020-05-02,3,57,8,11,5,0,10,33,274,6,9,38,21,26,194,16,28,14,22,6,43,12,22,12,51,30,45,25,15,64,27,7
2020-05-03,3,67,6,12,5,2,13,18,252,7,11,26,28,16,190,25,50,15,10,14,29,4,29,11,29,24,46,24,6,56,30,2
2020-05-04,42,126,7,17,26,2,31,34,653,3,33,52,32,26,389,42,51,15,38,22,46,9,31,28,72,60,81,37,24,91,47,5
2020-05-05,9,118,12,9,30,5,27,38,493,3,21,28,29,19,238,18,50,24,63,31,30,11,23,17,47,51,71,30,16,102,43,5
2020-05-06,15,98,10,15,35,1,34,27,554,4,27,44,38,25,218,33,52,15,24,21,38,9,38,34,78,38,94,40,23,98,33,11
2020-05-07,22,95,10,11,23,1,35,17,520,11,36,36,36,49,281,28,49,16,22,21,52,12,38,13,57,34,104,40,17,112,37,9
2020-05-08,11,99,8,12,15,2,34,26,592,10,41,36,32,25,264,42,34,5,24,12,38,25,25,25,54,49,80,28,19,92,33,9
2020-05-09,0,47,6,13,7,2,22,12,264,2,26,33,25,28,120,44,25,6,25,11,40,26,18,12,49,42,52,19,20,71,15,4
2020-05-10,4,42,8,6,13,1,18,11,243,1,19,29,19,16,104,17,25,7,22,19,25,17,22,19,30,21,57,19,14,60,25,2
2020-05-11,12,97,4,21,26,2,29,30,577,6,38,37,45,45,287,67,46,19,44,36,54,46,42,29,60,55,108,32,34,118,43,9
2020-05-12,35,73,15,18,16,6,40,11,508,11,47,48,51,29,228,54,52,18,34,54,47,33,33,24,71,49,82,29,36,100,50,3
2020-05-13,11,58,4,13,8,4,53,12,521,9,43,34,39,28,245,78,44,13,64,61,46,26,26,23,52,66,113,37,32,84,53,8
2020-05-14,13,42,5,8,9,11,54,2,414,3,49,32,52,45,182,48,21,15,27,32,65,20,37,32,63,18,113,25,18,63,44,11
2020-05-15,12,27,5,7,1,2,42,0,359,10,11,4,67,40,124,1,17,13,13,33,64,18,15,23,25,4,121,34,29,17,28,8
2020-05-16,0,2,2,5,0,2,6,0,115,0,2,2,26,8,27,0,2,2,5,16,28,9,4,16,1,0,57,5,10,0,13,2
2020-05-17,0,0,0,2,0,0,0,0,29,0,0,0,8,1,4,0,0,0,3,0,10,3,0,0,0,0,0,1,1,1,6,0
2020-05-18,0,0,0,0,0,0,0,0,0,0,0,0,0,0,1,0,0,0,0,0,0,0,0,0,0,0,0,0,0,0,0,0
